id,name,date,room,level,seconds,timestamp
1355,fitbit,Tue Jul 07 2020 03:06:30 GMT+0900 (GMT+09:00),0,wake,330,Wed Jul 08 2020 00:20:00 GMT+0900 (GMT+09:00)
1356,fitbit,Tue Jul 07 2020 03:12:00 GMT+0900 (GMT+09:00),0,light,3390,Wed Jul 08 2020 00:20:00 GMT+0900 (GMT+09:00)
1357,fitbit,Tue Jul 07 2020 04:08:30 GMT+0900 (GMT+09:00),0,wake,210,Wed Jul 08 2020 00:20:00 GMT+0900 (GMT+09:00)
1358,fitbit,Tue Jul 07 2020 04:12:00 GMT+0900 (GMT+09:00),0,light,870,Wed Jul 08 2020 00:20:00 GMT+0900 (GMT+09:00)
1359,fitbit,Tue Jul 07 2020 04:26:30 GMT+0900 (GMT+09:00),0,deep,510,Wed Jul 08 2020 00:20:00 GMT+0900 (GMT+09:00)
1360,fitbit,Tue Jul 07 2020 04:35:00 GMT+0900 (GMT+09:00),0,light,7170,Wed Jul 08 2020 00:20:00 GMT+0900 (GMT+09:00)
1361,fitbit,Tue Jul 07 2020 06:34:30 GMT+0900 (GMT+09:00),0,deep,1740,Wed Jul 08 2020 00:20:00 GMT+0900 (GMT+09:00)
1362,fitbit,Tue Jul 07 2020 07:03:30 GMT+0900 (GMT+09:00),0,wake,330,Wed Jul 08 2020 00:20:00 GMT+0900 (GMT+09:00)
1363,fitbit,Tue Jul 07 2020 07:09:00 GMT+0900 (GMT+09:00),0,light,2340,Wed Jul 08 2020 00:20:00 GMT+0900 (GMT+09:00)
1364,fitbit,Tue Jul 07 2020 07:48:00 GMT+0900 (GMT+09:00),0,wake,450,Wed Jul 08 2020 00:20:00 GMT+0900 (GMT+09:00)
1365,fitbit,Tue Jul 07 2020 07:55:30 GMT+0900 (GMT+09:00),0,light,150,Wed Jul 08 2020 00:20:00 GMT+0900 (GMT+09:00)
1366,fitbit,Tue Jul 07 2020 07:58:00 GMT+0900 (GMT+09:00),0,wake,690,Wed Jul 08 2020 00:20:00 GMT+0900 (GMT+09:00)
1367,fitbit,Tue Jul 07 2020 08:09:30 GMT+0900 (GMT+09:00),0,light,750,Wed Jul 08 2020 00:20:00 GMT+0900 (GMT+09:00)
1368,fitbit,Tue Jul 07 2020 08:22:00 GMT+0900 (GMT+09:00),0,deep,390,Wed Jul 08 2020 00:20:00 GMT+0900 (GMT+09:00)
1369,fitbit,Tue Jul 07 2020 08:28:30 GMT+0900 (GMT+09:00),0,light,1260,Wed Jul 08 2020 00:20:00 GMT+0900 (GMT+09:00)
1370,fitbit,Tue Jul 07 2020 08:49:30 GMT+0900 (GMT+09:00),0,rem,840,Wed Jul 08 2020 00:20:00 GMT+0900 (GMT+09:00)
1371,fitbit,Wed Jul 08 2020 03:08:30 GMT+0900 (GMT+09:00),0,wake,810,Thu Jul 09 2020 00:20:00 GMT+0900 (GMT+09:00)
1372,fitbit,Wed Jul 08 2020 03:22:00 GMT+0900 (GMT+09:00),0,light,330,Thu Jul 09 2020 00:20:00 GMT+0900 (GMT+09:00)
1373,fitbit,Wed Jul 08 2020 03:27:30 GMT+0900 (GMT+09:00),0,deep,1410,Thu Jul 09 2020 00:20:00 GMT+0900 (GMT+09:00)
1374,fitbit,Wed Jul 08 2020 03:51:00 GMT+0900 (GMT+09:00),0,light,1170,Thu Jul 09 2020 00:20:00 GMT+0900 (GMT+09:00)
1375,fitbit,Wed Jul 08 2020 04:10:30 GMT+0900 (GMT+09:00),0,deep,1170,Thu Jul 09 2020 00:20:00 GMT+0900 (GMT+09:00)
1376,fitbit,Wed Jul 08 2020 04:30:00 GMT+0900 (GMT+09:00),0,light,3810,Thu Jul 09 2020 00:20:00 GMT+0900 (GMT+09:00)
1377,fitbit,Wed Jul 08 2020 05:33:30 GMT+0900 (GMT+09:00),0,rem,1650,Thu Jul 09 2020 00:20:00 GMT+0900 (GMT+09:00)
1378,fitbit,Wed Jul 08 2020 06:01:00 GMT+0900 (GMT+09:00),0,light,3270,Thu Jul 09 2020 00:20:00 GMT+0900 (GMT+09:00)
1379,fitbit,Wed Jul 08 2020 06:55:30 GMT+0900 (GMT+09:00),0,rem,330,Thu Jul 09 2020 00:20:00 GMT+0900 (GMT+09:00)
1380,fitbit,Wed Jul 08 2020 07:01:00 GMT+0900 (GMT+09:00),0,light,2880,Thu Jul 09 2020 00:20:00 GMT+0900 (GMT+09:00)
1381,fitbit,Wed Jul 08 2020 07:49:00 GMT+0900 (GMT+09:00),0,deep,660,Thu Jul 09 2020 00:20:00 GMT+0900 (GMT+09:00)
1382,fitbit,Wed Jul 08 2020 08:00:00 GMT+0900 (GMT+09:00),0,wake,750,Thu Jul 09 2020 00:20:00 GMT+0900 (GMT+09:00)
1383,fitbit,Wed Jul 08 2020 08:12:30 GMT+0900 (GMT+09:00),0,light,2220,Thu Jul 09 2020 00:20:00 GMT+0900 (GMT+09:00)
1384,fitbit,Wed Jul 08 2020 08:49:30 GMT+0900 (GMT+09:00),0,rem,1110,Thu Jul 09 2020 00:20:00 GMT+0900 (GMT+09:00)
1385,fitbit,Thu Jul 09 2020 01:06:00 GMT+0900 (GMT+09:00),0,wake,30,Fri Jul 10 2020 00:20:00 GMT+0900 (GMT+09:00)
1386,fitbit,Thu Jul 09 2020 01:06:30 GMT+0900 (GMT+09:00),0,light,1860,Fri Jul 10 2020 00:20:00 GMT+0900 (GMT+09:00)
1387,fitbit,Thu Jul 09 2020 01:37:30 GMT+0900 (GMT+09:00),0,deep,570,Fri Jul 10 2020 00:20:00 GMT+0900 (GMT+09:00)
1388,fitbit,Thu Jul 09 2020 01:47:00 GMT+0900 (GMT+09:00),0,light,2550,Fri Jul 10 2020 00:20:00 GMT+0900 (GMT+09:00)
1389,fitbit,Thu Jul 09 2020 02:29:30 GMT+0900 (GMT+09:00),0,deep,990,Fri Jul 10 2020 00:20:00 GMT+0900 (GMT+09:00)
1390,fitbit,Thu Jul 09 2020 02:46:00 GMT+0900 (GMT+09:00),0,light,1830,Fri Jul 10 2020 00:20:00 GMT+0900 (GMT+09:00)
1391,fitbit,Thu Jul 09 2020 03:16:30 GMT+0900 (GMT+09:00),0,deep,420,Fri Jul 10 2020 00:20:00 GMT+0900 (GMT+09:00)
1392,fitbit,Thu Jul 09 2020 03:23:30 GMT+0900 (GMT+09:00),0,light,360,Fri Jul 10 2020 00:20:00 GMT+0900 (GMT+09:00)
1393,fitbit,Thu Jul 09 2020 03:29:30 GMT+0900 (GMT+09:00),0,wake,270,Fri Jul 10 2020 00:20:00 GMT+0900 (GMT+09:00)
1394,fitbit,Thu Jul 09 2020 03:34:00 GMT+0900 (GMT+09:00),0,light,1020,Fri Jul 10 2020 00:20:00 GMT+0900 (GMT+09:00)
1395,fitbit,Thu Jul 09 2020 03:51:00 GMT+0900 (GMT+09:00),0,deep,2640,Fri Jul 10 2020 00:20:00 GMT+0900 (GMT+09:00)
1396,fitbit,Thu Jul 09 2020 04:35:00 GMT+0900 (GMT+09:00),0,light,1260,Fri Jul 10 2020 00:20:00 GMT+0900 (GMT+09:00)
1397,fitbit,Thu Jul 09 2020 04:56:00 GMT+0900 (GMT+09:00),0,rem,420,Fri Jul 10 2020 00:20:00 GMT+0900 (GMT+09:00)
1398,fitbit,Thu Jul 09 2020 05:03:00 GMT+0900 (GMT+09:00),0,light,120,Fri Jul 10 2020 00:20:00 GMT+0900 (GMT+09:00)
1399,fitbit,Thu Jul 09 2020 05:05:00 GMT+0900 (GMT+09:00),0,wake,510,Fri Jul 10 2020 00:20:00 GMT+0900 (GMT+09:00)
1400,fitbit,Thu Jul 09 2020 05:13:30 GMT+0900 (GMT+09:00),0,light,1500,Fri Jul 10 2020 00:20:00 GMT+0900 (GMT+09:00)
1401,fitbit,Thu Jul 09 2020 05:38:30 GMT+0900 (GMT+09:00),0,deep,270,Fri Jul 10 2020 00:20:00 GMT+0900 (GMT+09:00)
1402,fitbit,Thu Jul 09 2020 05:43:00 GMT+0900 (GMT+09:00),0,light,2100,Fri Jul 10 2020 00:20:00 GMT+0900 (GMT+09:00)
1403,fitbit,Thu Jul 09 2020 06:18:00 GMT+0900 (GMT+09:00),0,wake,300,Fri Jul 10 2020 00:20:00 GMT+0900 (GMT+09:00)
1404,fitbit,Thu Jul 09 2020 06:23:00 GMT+0900 (GMT+09:00),0,light,1140,Fri Jul 10 2020 00:20:00 GMT+0900 (GMT+09:00)
1405,fitbit,Thu Jul 09 2020 06:42:00 GMT+0900 (GMT+09:00),0,rem,1380,Fri Jul 10 2020 00:20:00 GMT+0900 (GMT+09:00)
1406,fitbit,Thu Jul 09 2020 07:05:00 GMT+0900 (GMT+09:00),0,light,1320,Fri Jul 10 2020 00:20:00 GMT+0900 (GMT+09:00)
1407,fitbit,Thu Jul 09 2020 07:27:00 GMT+0900 (GMT+09:00),0,deep,1080,Fri Jul 10 2020 00:20:00 GMT+0900 (GMT+09:00)
1408,fitbit,Thu Jul 09 2020 07:45:00 GMT+0900 (GMT+09:00),0,wake,1140,Fri Jul 10 2020 00:20:00 GMT+0900 (GMT+09:00)
1409,fitbit,Thu Jul 09 2020 08:04:00 GMT+0900 (GMT+09:00),0,light,1320,Fri Jul 10 2020 00:20:00 GMT+0900 (GMT+09:00)
1410,fitbit,Thu Jul 09 2020 08:26:00 GMT+0900 (GMT+09:00),0,rem,1260,Fri Jul 10 2020 00:20:00 GMT+0900 (GMT+09:00)
1411,fitbit,Thu Jul 09 2020 08:47:00 GMT+0900 (GMT+09:00),0,light,1980,Fri Jul 10 2020 00:20:00 GMT+0900 (GMT+09:00)
1412,fitbit,Thu Jul 09 2020 09:20:00 GMT+0900 (GMT+09:00),0,rem,480,Fri Jul 10 2020 00:20:00 GMT+0900 (GMT+09:00)
1413,fitbit,Thu Jul 09 2020 09:28:00 GMT+0900 (GMT+09:00),0,wake,630,Fri Jul 10 2020 00:20:00 GMT+0900 (GMT+09:00)
1414,fitbit,Fri Jul 10 2020 01:38:00 GMT+0900 (GMT+09:00),0,wake,30,Sat Jul 11 2020 00:20:00 GMT+0900 (GMT+09:00)
1415,fitbit,Fri Jul 10 2020 01:38:30 GMT+0900 (GMT+09:00),0,light,1800,Sat Jul 11 2020 00:20:00 GMT+0900 (GMT+09:00)
1416,fitbit,Fri Jul 10 2020 02:08:30 GMT+0900 (GMT+09:00),0,deep,1350,Sat Jul 11 2020 00:20:00 GMT+0900 (GMT+09:00)
1417,fitbit,Fri Jul 10 2020 02:31:00 GMT+0900 (GMT+09:00),0,light,1920,Sat Jul 11 2020 00:20:00 GMT+0900 (GMT+09:00)
1418,fitbit,Fri Jul 10 2020 03:03:00 GMT+0900 (GMT+09:00),0,deep,330,Sat Jul 11 2020 00:20:00 GMT+0900 (GMT+09:00)
1419,fitbit,Fri Jul 10 2020 03:08:30 GMT+0900 (GMT+09:00),0,light,870,Sat Jul 11 2020 00:20:00 GMT+0900 (GMT+09:00)
1420,fitbit,Fri Jul 10 2020 03:23:00 GMT+0900 (GMT+09:00),0,deep,1350,Sat Jul 11 2020 00:20:00 GMT+0900 (GMT+09:00)
1421,fitbit,Fri Jul 10 2020 03:45:30 GMT+0900 (GMT+09:00),0,light,1950,Sat Jul 11 2020 00:20:00 GMT+0900 (GMT+09:00)
1422,fitbit,Fri Jul 10 2020 04:18:00 GMT+0900 (GMT+09:00),0,deep,2070,Sat Jul 11 2020 00:20:00 GMT+0900 (GMT+09:00)
1423,fitbit,Fri Jul 10 2020 04:52:30 GMT+0900 (GMT+09:00),0,light,1200,Sat Jul 11 2020 00:20:00 GMT+0900 (GMT+09:00)
1424,fitbit,Fri Jul 10 2020 05:12:30 GMT+0900 (GMT+09:00),0,wake,720,Sat Jul 11 2020 00:20:00 GMT+0900 (GMT+09:00)
1425,fitbit,Fri Jul 10 2020 05:24:30 GMT+0900 (GMT+09:00),0,rem,360,Sat Jul 11 2020 00:20:00 GMT+0900 (GMT+09:00)
1426,fitbit,Fri Jul 10 2020 05:30:30 GMT+0900 (GMT+09:00),0,light,1620,Sat Jul 11 2020 00:20:00 GMT+0900 (GMT+09:00)
1427,fitbit,Fri Jul 10 2020 05:57:30 GMT+0900 (GMT+09:00),0,deep,690,Sat Jul 11 2020 00:20:00 GMT+0900 (GMT+09:00)
1428,fitbit,Fri Jul 10 2020 06:09:00 GMT+0900 (GMT+09:00),0,light,1530,Sat Jul 11 2020 00:20:00 GMT+0900 (GMT+09:00)
1429,fitbit,Fri Jul 10 2020 06:34:30 GMT+0900 (GMT+09:00),0,rem,3150,Sat Jul 11 2020 00:20:00 GMT+0900 (GMT+09:00)
1430,fitbit,Fri Jul 10 2020 07:27:00 GMT+0900 (GMT+09:00),0,light,1920,Sat Jul 11 2020 00:20:00 GMT+0900 (GMT+09:00)
1431,fitbit,Fri Jul 10 2020 07:59:00 GMT+0900 (GMT+09:00),0,wake,210,Sat Jul 11 2020 00:20:00 GMT+0900 (GMT+09:00)
1432,fitbit,Fri Jul 10 2020 08:02:30 GMT+0900 (GMT+09:00),0,light,1260,Sat Jul 11 2020 00:20:00 GMT+0900 (GMT+09:00)
1433,fitbit,Fri Jul 10 2020 08:23:30 GMT+0900 (GMT+09:00),0,wake,510,Sat Jul 11 2020 00:20:00 GMT+0900 (GMT+09:00)
1434,fitbit,Fri Jul 10 2020 08:32:00 GMT+0900 (GMT+09:00),0,light,1110,Sat Jul 11 2020 00:20:00 GMT+0900 (GMT+09:00)
1435,fitbit,Fri Jul 10 2020 08:50:30 GMT+0900 (GMT+09:00),0,rem,930,Sat Jul 11 2020 00:20:00 GMT+0900 (GMT+09:00)
1436,fitbit,Sat Jul 11 2020 01:14:30 GMT+0900 (GMT+09:00),0,wake,450,Sun Jul 12 2020 00:20:00 GMT+0900 (GMT+09:00)
1437,fitbit,Sat Jul 11 2020 01:22:00 GMT+0900 (GMT+09:00),0,light,420,Sun Jul 12 2020 00:20:00 GMT+0900 (GMT+09:00)
1438,fitbit,Sat Jul 11 2020 01:29:00 GMT+0900 (GMT+09:00),0,deep,2730,Sun Jul 12 2020 00:20:00 GMT+0900 (GMT+09:00)
1439,fitbit,Sat Jul 11 2020 02:14:30 GMT+0900 (GMT+09:00),0,light,5610,Sun Jul 12 2020 00:20:00 GMT+0900 (GMT+09:00)
1440,fitbit,Sat Jul 11 2020 03:48:00 GMT+0900 (GMT+09:00),0,deep,1740,Sun Jul 12 2020 00:20:00 GMT+0900 (GMT+09:00)
1441,fitbit,Sat Jul 11 2020 04:17:00 GMT+0900 (GMT+09:00),0,light,90,Sun Jul 12 2020 00:20:00 GMT+0900 (GMT+09:00)
1442,fitbit,Sat Jul 11 2020 04:18:30 GMT+0900 (GMT+09:00),0,rem,1350,Sun Jul 12 2020 00:20:00 GMT+0900 (GMT+09:00)
1443,fitbit,Sat Jul 11 2020 04:41:00 GMT+0900 (GMT+09:00),0,light,1410,Sun Jul 12 2020 00:20:00 GMT+0900 (GMT+09:00)
1444,fitbit,Sat Jul 11 2020 05:04:30 GMT+0900 (GMT+09:00),0,deep,1260,Sun Jul 12 2020 00:20:00 GMT+0900 (GMT+09:00)
1445,fitbit,Sat Jul 11 2020 05:25:30 GMT+0900 (GMT+09:00),0,light,720,Sun Jul 12 2020 00:20:00 GMT+0900 (GMT+09:00)
1446,fitbit,Sat Jul 11 2020 05:37:30 GMT+0900 (GMT+09:00),0,deep,810,Sun Jul 12 2020 00:20:00 GMT+0900 (GMT+09:00)
1447,fitbit,Sat Jul 11 2020 05:51:00 GMT+0900 (GMT+09:00),0,light,1500,Sun Jul 12 2020 00:20:00 GMT+0900 (GMT+09:00)
1448,fitbit,Sat Jul 11 2020 06:16:00 GMT+0900 (GMT+09:00),0,wake,240,Sun Jul 12 2020 00:20:00 GMT+0900 (GMT+09:00)
1449,fitbit,Sat Jul 11 2020 06:20:00 GMT+0900 (GMT+09:00),0,light,1740,Sun Jul 12 2020 00:20:00 GMT+0900 (GMT+09:00)
1450,fitbit,Sat Jul 11 2020 06:49:00 GMT+0900 (GMT+09:00),0,wake,420,Sun Jul 12 2020 00:20:00 GMT+0900 (GMT+09:00)
1451,fitbit,Sat Jul 11 2020 06:56:00 GMT+0900 (GMT+09:00),0,light,570,Sun Jul 12 2020 00:20:00 GMT+0900 (GMT+09:00)
1452,fitbit,Sat Jul 11 2020 07:05:30 GMT+0900 (GMT+09:00),0,wake,780,Sun Jul 12 2020 00:20:00 GMT+0900 (GMT+09:00)
1453,fitbit,Sat Jul 11 2020 07:18:30 GMT+0900 (GMT+09:00),0,light,2070,Sun Jul 12 2020 00:20:00 GMT+0900 (GMT+09:00)
1454,fitbit,Sat Jul 11 2020 07:53:00 GMT+0900 (GMT+09:00),0,wake,720,Sun Jul 12 2020 00:20:00 GMT+0900 (GMT+09:00)
1455,fitbit,Sat Jul 11 2020 08:05:00 GMT+0900 (GMT+09:00),0,light,570,Sun Jul 12 2020 00:20:00 GMT+0900 (GMT+09:00)
1456,fitbit,Sat Jul 11 2020 08:14:30 GMT+0900 (GMT+09:00),0,rem,990,Sun Jul 12 2020 00:20:00 GMT+0900 (GMT+09:00)
1457,fitbit,Sat Jul 11 2020 08:31:00 GMT+0900 (GMT+09:00),0,light,240,Sun Jul 12 2020 00:20:00 GMT+0900 (GMT+09:00)
1458,fitbit,Sat Jul 11 2020 08:35:00 GMT+0900 (GMT+09:00),0,wake,300,Sun Jul 12 2020 00:20:00 GMT+0900 (GMT+09:00)
1459,fitbit,Sat Jul 11 2020 08:40:00 GMT+0900 (GMT+09:00),0,light,900,Sun Jul 12 2020 00:20:00 GMT+0900 (GMT+09:00)
1460,fitbit,Sat Jul 11 2020 08:55:00 GMT+0900 (GMT+09:00),0,rem,420,Sun Jul 12 2020 00:20:00 GMT+0900 (GMT+09:00)
1461,fitbit,Sat Jul 11 2020 09:02:00 GMT+0900 (GMT+09:00),0,wake,270,Sun Jul 12 2020 00:20:00 GMT+0900 (GMT+09:00)
1462,fitbit,Sat Jul 11 2020 09:06:30 GMT+0900 (GMT+09:00),0,light,1260,Sun Jul 12 2020 00:20:00 GMT+0900 (GMT+09:00)
1463,fitbit,Sat Jul 11 2020 09:27:30 GMT+0900 (GMT+09:00),0,wake,330,Sun Jul 12 2020 00:20:00 GMT+0900 (GMT+09:00)
1464,fitbit,Sat Jul 11 2020 09:33:00 GMT+0900 (GMT+09:00),0,light,1440,Sun Jul 12 2020 00:20:00 GMT+0900 (GMT+09:00)
1465,fitbit,Sat Jul 11 2020 09:57:00 GMT+0900 (GMT+09:00),0,wake,570,Sun Jul 12 2020 00:20:00 GMT+0900 (GMT+09:00)
1466,fitbit,Sun Jul 12 2020 02:39:00 GMT+0900 (GMT+09:00),0,wake,840,Mon Jul 13 2020 00:20:00 GMT+0900 (GMT+09:00)
1467,fitbit,Sun Jul 12 2020 02:53:00 GMT+0900 (GMT+09:00),0,light,1350,Mon Jul 13 2020 00:20:00 GMT+0900 (GMT+09:00)
1468,fitbit,Sun Jul 12 2020 03:15:30 GMT+0900 (GMT+09:00),0,deep,540,Mon Jul 13 2020 00:20:00 GMT+0900 (GMT+09:00)
1469,fitbit,Sun Jul 12 2020 03:24:30 GMT+0900 (GMT+09:00),0,light,570,Mon Jul 13 2020 00:20:00 GMT+0900 (GMT+09:00)
1470,fitbit,Sun Jul 12 2020 03:34:00 GMT+0900 (GMT+09:00),0,rem,270,Mon Jul 13 2020 00:20:00 GMT+0900 (GMT+09:00)
1471,fitbit,Sun Jul 12 2020 03:38:30 GMT+0900 (GMT+09:00),0,wake,510,Mon Jul 13 2020 00:20:00 GMT+0900 (GMT+09:00)
1472,fitbit,Sun Jul 12 2020 03:47:00 GMT+0900 (GMT+09:00),0,light,840,Mon Jul 13 2020 00:20:00 GMT+0900 (GMT+09:00)
1473,fitbit,Sun Jul 12 2020 04:01:00 GMT+0900 (GMT+09:00),0,deep,1080,Mon Jul 13 2020 00:20:00 GMT+0900 (GMT+09:00)
1474,fitbit,Sun Jul 12 2020 04:19:00 GMT+0900 (GMT+09:00),0,light,1200,Mon Jul 13 2020 00:20:00 GMT+0900 (GMT+09:00)
1475,fitbit,Sun Jul 12 2020 04:39:00 GMT+0900 (GMT+09:00),0,rem,450,Mon Jul 13 2020 00:20:00 GMT+0900 (GMT+09:00)
1476,fitbit,Sun Jul 12 2020 04:46:30 GMT+0900 (GMT+09:00),0,light,720,Mon Jul 13 2020 00:20:00 GMT+0900 (GMT+09:00)
1477,fitbit,Sun Jul 12 2020 04:58:30 GMT+0900 (GMT+09:00),0,deep,1290,Mon Jul 13 2020 00:20:00 GMT+0900 (GMT+09:00)
1478,fitbit,Sun Jul 12 2020 05:20:00 GMT+0900 (GMT+09:00),0,light,420,Mon Jul 13 2020 00:20:00 GMT+0900 (GMT+09:00)
1479,fitbit,Sun Jul 12 2020 05:27:00 GMT+0900 (GMT+09:00),0,deep,540,Mon Jul 13 2020 00:20:00 GMT+0900 (GMT+09:00)
1480,fitbit,Sun Jul 12 2020 05:36:00 GMT+0900 (GMT+09:00),0,light,1590,Mon Jul 13 2020 00:20:00 GMT+0900 (GMT+09:00)
1481,fitbit,Sun Jul 12 2020 06:02:30 GMT+0900 (GMT+09:00),0,wake,450,Mon Jul 13 2020 00:20:00 GMT+0900 (GMT+09:00)
1482,fitbit,Sun Jul 12 2020 06:10:00 GMT+0900 (GMT+09:00),0,light,330,Mon Jul 13 2020 00:20:00 GMT+0900 (GMT+09:00)
1483,fitbit,Sun Jul 12 2020 06:15:30 GMT+0900 (GMT+09:00),0,rem,450,Mon Jul 13 2020 00:20:00 GMT+0900 (GMT+09:00)
1484,fitbit,Sun Jul 12 2020 06:23:00 GMT+0900 (GMT+09:00),0,light,1500,Mon Jul 13 2020 00:20:00 GMT+0900 (GMT+09:00)
1485,fitbit,Sun Jul 12 2020 06:48:00 GMT+0900 (GMT+09:00),0,deep,1590,Mon Jul 13 2020 00:20:00 GMT+0900 (GMT+09:00)
1486,fitbit,Sun Jul 12 2020 07:14:30 GMT+0900 (GMT+09:00),0,light,900,Mon Jul 13 2020 00:20:00 GMT+0900 (GMT+09:00)
1487,fitbit,Sun Jul 12 2020 07:29:30 GMT+0900 (GMT+09:00),0,rem,1980,Mon Jul 13 2020 00:20:00 GMT+0900 (GMT+09:00)
1488,fitbit,Sun Jul 12 2020 08:02:30 GMT+0900 (GMT+09:00),0,light,1890,Mon Jul 13 2020 00:20:00 GMT+0900 (GMT+09:00)
1489,fitbit,Sun Jul 12 2020 08:34:00 GMT+0900 (GMT+09:00),0,deep,1230,Mon Jul 13 2020 00:20:00 GMT+0900 (GMT+09:00)
1490,fitbit,Sun Jul 12 2020 08:54:30 GMT+0900 (GMT+09:00),0,light,510,Mon Jul 13 2020 00:20:00 GMT+0900 (GMT+09:00)
1491,fitbit,Sun Jul 12 2020 09:03:00 GMT+0900 (GMT+09:00),0,rem,480,Mon Jul 13 2020 00:20:00 GMT+0900 (GMT+09:00)
1492,fitbit,Sun Jul 12 2020 09:11:00 GMT+0900 (GMT+09:00),0,light,450,Mon Jul 13 2020 00:20:00 GMT+0900 (GMT+09:00)
1493,fitbit,Sun Jul 12 2020 09:18:30 GMT+0900 (GMT+09:00),0,wake,600,Mon Jul 13 2020 00:20:00 GMT+0900 (GMT+09:00)
1494,fitbit,Sun Jul 12 2020 09:28:30 GMT+0900 (GMT+09:00),0,light,570,Mon Jul 13 2020 00:20:00 GMT+0900 (GMT+09:00)
1495,fitbit,Sun Jul 12 2020 09:38:00 GMT+0900 (GMT+09:00),0,rem,270,Mon Jul 13 2020 00:20:00 GMT+0900 (GMT+09:00)
1496,fitbit,Sun Jul 12 2020 09:42:30 GMT+0900 (GMT+09:00),0,light,3330,Mon Jul 13 2020 00:20:00 GMT+0900 (GMT+09:00)
1497,fitbit,Sun Jul 12 2020 10:38:00 GMT+0900 (GMT+09:00),0,wake,420,Mon Jul 13 2020 00:20:00 GMT+0900 (GMT+09:00)
1498,fitbit,Mon Jul 13 2020 01:11:30 GMT+0900 (GMT+09:00),0,wake,570,Tue Jul 14 2020 00:20:00 GMT+0900 (GMT+09:00)
1499,fitbit,Mon Jul 13 2020 01:21:00 GMT+0900 (GMT+09:00),0,light,900,Tue Jul 14 2020 00:20:00 GMT+0900 (GMT+09:00)
1500,fitbit,Mon Jul 13 2020 01:36:00 GMT+0900 (GMT+09:00),0,wake,300,Tue Jul 14 2020 00:20:00 GMT+0900 (GMT+09:00)
1501,fitbit,Mon Jul 13 2020 01:41:00 GMT+0900 (GMT+09:00),0,light,120,Tue Jul 14 2020 00:20:00 GMT+0900 (GMT+09:00)
1502,fitbit,Mon Jul 13 2020 01:43:00 GMT+0900 (GMT+09:00),0,wake,1110,Tue Jul 14 2020 00:20:00 GMT+0900 (GMT+09:00)
1503,fitbit,Mon Jul 13 2020 02:01:30 GMT+0900 (GMT+09:00),0,light,2580,Tue Jul 14 2020 00:20:00 GMT+0900 (GMT+09:00)
1504,fitbit,Mon Jul 13 2020 02:44:30 GMT+0900 (GMT+09:00),0,deep,540,Tue Jul 14 2020 00:20:00 GMT+0900 (GMT+09:00)
1505,fitbit,Mon Jul 13 2020 02:53:30 GMT+0900 (GMT+09:00),0,light,720,Tue Jul 14 2020 00:20:00 GMT+0900 (GMT+09:00)
1506,fitbit,Mon Jul 13 2020 03:05:30 GMT+0900 (GMT+09:00),0,rem,510,Tue Jul 14 2020 00:20:00 GMT+0900 (GMT+09:00)
1507,fitbit,Mon Jul 13 2020 03:14:00 GMT+0900 (GMT+09:00),0,light,210,Tue Jul 14 2020 00:20:00 GMT+0900 (GMT+09:00)
1508,fitbit,Mon Jul 13 2020 03:17:30 GMT+0900 (GMT+09:00),0,deep,2010,Tue Jul 14 2020 00:20:00 GMT+0900 (GMT+09:00)
1509,fitbit,Mon Jul 13 2020 03:51:00 GMT+0900 (GMT+09:00),0,light,2040,Tue Jul 14 2020 00:20:00 GMT+0900 (GMT+09:00)
1510,fitbit,Mon Jul 13 2020 04:25:00 GMT+0900 (GMT+09:00),0,deep,1530,Tue Jul 14 2020 00:20:00 GMT+0900 (GMT+09:00)
1511,fitbit,Mon Jul 13 2020 04:50:30 GMT+0900 (GMT+09:00),0,light,750,Tue Jul 14 2020 00:20:00 GMT+0900 (GMT+09:00)
1512,fitbit,Mon Jul 13 2020 05:03:00 GMT+0900 (GMT+09:00),0,deep,1710,Tue Jul 14 2020 00:20:00 GMT+0900 (GMT+09:00)
1513,fitbit,Mon Jul 13 2020 05:31:30 GMT+0900 (GMT+09:00),0,rem,300,Tue Jul 14 2020 00:20:00 GMT+0900 (GMT+09:00)
1514,fitbit,Mon Jul 13 2020 05:36:30 GMT+0900 (GMT+09:00),0,light,390,Tue Jul 14 2020 00:20:00 GMT+0900 (GMT+09:00)
1515,fitbit,Mon Jul 13 2020 05:43:00 GMT+0900 (GMT+09:00),0,wake,600,Tue Jul 14 2020 00:20:00 GMT+0900 (GMT+09:00)
1516,fitbit,Mon Jul 13 2020 05:53:00 GMT+0900 (GMT+09:00),0,light,180,Tue Jul 14 2020 00:20:00 GMT+0900 (GMT+09:00)
1517,fitbit,Mon Jul 13 2020 05:56:00 GMT+0900 (GMT+09:00),0,wake,330,Tue Jul 14 2020 00:20:00 GMT+0900 (GMT+09:00)
1518,fitbit,Mon Jul 13 2020 06:01:30 GMT+0900 (GMT+09:00),0,rem,360,Tue Jul 14 2020 00:20:00 GMT+0900 (GMT+09:00)
1519,fitbit,Mon Jul 13 2020 06:07:30 GMT+0900 (GMT+09:00),0,wake,630,Tue Jul 14 2020 00:20:00 GMT+0900 (GMT+09:00)
1520,fitbit,Mon Jul 13 2020 06:18:00 GMT+0900 (GMT+09:00),0,light,120,Tue Jul 14 2020 00:20:00 GMT+0900 (GMT+09:00)
1521,fitbit,Mon Jul 13 2020 06:20:00 GMT+0900 (GMT+09:00),0,rem,600,Tue Jul 14 2020 00:20:00 GMT+0900 (GMT+09:00)
1522,fitbit,Mon Jul 13 2020 06:30:00 GMT+0900 (GMT+09:00),0,light,3420,Tue Jul 14 2020 00:20:00 GMT+0900 (GMT+09:00)
1523,fitbit,Mon Jul 13 2020 07:27:00 GMT+0900 (GMT+09:00),0,wake,600,Tue Jul 14 2020 00:20:00 GMT+0900 (GMT+09:00)
1524,fitbit,Mon Jul 13 2020 07:37:00 GMT+0900 (GMT+09:00),0,light,1380,Tue Jul 14 2020 00:20:00 GMT+0900 (GMT+09:00)
1525,fitbit,Mon Jul 13 2020 08:00:00 GMT+0900 (GMT+09:00),0,wake,600,Tue Jul 14 2020 00:20:00 GMT+0900 (GMT+09:00)
1526,fitbit,Mon Jul 13 2020 08:10:00 GMT+0900 (GMT+09:00),0,light,1440,Tue Jul 14 2020 00:20:00 GMT+0900 (GMT+09:00)
1527,fitbit,Mon Jul 13 2020 08:34:00 GMT+0900 (GMT+09:00),0,rem,690,Tue Jul 14 2020 00:20:00 GMT+0900 (GMT+09:00)
1528,fitbit,Mon Jul 13 2020 08:45:30 GMT+0900 (GMT+09:00),0,light,1230,Tue Jul 14 2020 00:20:00 GMT+0900 (GMT+09:00)
1529,fitbit,Mon Jul 13 2020 09:06:00 GMT+0900 (GMT+09:00),0,wake,1320,Tue Jul 14 2020 00:20:00 GMT+0900 (GMT+09:00)
1530,fitbit,Tue Jul 14 2020 00:59:00 GMT+0900 (GMT+09:00),0,wake,30,Wed Jul 15 2020 00:20:00 GMT+0900 (GMT+09:00)
1531,fitbit,Tue Jul 14 2020 00:59:30 GMT+0900 (GMT+09:00),0,light,2040,Wed Jul 15 2020 00:20:00 GMT+0900 (GMT+09:00)
1532,fitbit,Tue Jul 14 2020 01:33:30 GMT+0900 (GMT+09:00),0,deep,1260,Wed Jul 15 2020 00:20:00 GMT+0900 (GMT+09:00)
1533,fitbit,Tue Jul 14 2020 01:54:30 GMT+0900 (GMT+09:00),0,light,1470,Wed Jul 15 2020 00:20:00 GMT+0900 (GMT+09:00)
1534,fitbit,Tue Jul 14 2020 02:19:00 GMT+0900 (GMT+09:00),0,deep,1410,Wed Jul 15 2020 00:20:00 GMT+0900 (GMT+09:00)
1535,fitbit,Tue Jul 14 2020 02:42:30 GMT+0900 (GMT+09:00),0,light,4020,Wed Jul 15 2020 00:20:00 GMT+0900 (GMT+09:00)
1536,fitbit,Tue Jul 14 2020 03:49:30 GMT+0900 (GMT+09:00),0,deep,1110,Wed Jul 15 2020 00:20:00 GMT+0900 (GMT+09:00)
1537,fitbit,Tue Jul 14 2020 04:08:00 GMT+0900 (GMT+09:00),0,light,1140,Wed Jul 15 2020 00:20:00 GMT+0900 (GMT+09:00)
1538,fitbit,Tue Jul 14 2020 04:27:00 GMT+0900 (GMT+09:00),0,deep,720,Wed Jul 15 2020 00:20:00 GMT+0900 (GMT+09:00)
1539,fitbit,Tue Jul 14 2020 04:39:00 GMT+0900 (GMT+09:00),0,light,180,Wed Jul 15 2020 00:20:00 GMT+0900 (GMT+09:00)
1540,fitbit,Tue Jul 14 2020 04:42:00 GMT+0900 (GMT+09:00),0,rem,390,Wed Jul 15 2020 00:20:00 GMT+0900 (GMT+09:00)
1541,fitbit,Tue Jul 14 2020 04:48:30 GMT+0900 (GMT+09:00),0,wake,900,Wed Jul 15 2020 00:20:00 GMT+0900 (GMT+09:00)
1542,fitbit,Tue Jul 14 2020 05:03:30 GMT+0900 (GMT+09:00),0,light,2430,Wed Jul 15 2020 00:20:00 GMT+0900 (GMT+09:00)
1543,fitbit,Tue Jul 14 2020 05:44:00 GMT+0900 (GMT+09:00),0,deep,1650,Wed Jul 15 2020 00:20:00 GMT+0900 (GMT+09:00)
1544,fitbit,Tue Jul 14 2020 06:11:30 GMT+0900 (GMT+09:00),0,rem,810,Wed Jul 15 2020 00:20:00 GMT+0900 (GMT+09:00)
1545,fitbit,Tue Jul 14 2020 06:25:00 GMT+0900 (GMT+09:00),0,light,480,Wed Jul 15 2020 00:20:00 GMT+0900 (GMT+09:00)
1546,fitbit,Tue Jul 14 2020 06:33:00 GMT+0900 (GMT+09:00),0,rem,300,Wed Jul 15 2020 00:20:00 GMT+0900 (GMT+09:00)
1547,fitbit,Tue Jul 14 2020 06:38:00 GMT+0900 (GMT+09:00),0,light,150,Wed Jul 15 2020 00:20:00 GMT+0900 (GMT+09:00)
1548,fitbit,Tue Jul 14 2020 06:40:30 GMT+0900 (GMT+09:00),0,wake,270,Wed Jul 15 2020 00:20:00 GMT+0900 (GMT+09:00)
1549,fitbit,Tue Jul 14 2020 06:45:00 GMT+0900 (GMT+09:00),0,light,3750,Wed Jul 15 2020 00:20:00 GMT+0900 (GMT+09:00)
1550,fitbit,Tue Jul 14 2020 07:47:30 GMT+0900 (GMT+09:00),0,wake,330,Wed Jul 15 2020 00:20:00 GMT+0900 (GMT+09:00)
1551,fitbit,Tue Jul 14 2020 07:53:00 GMT+0900 (GMT+09:00),0,light,120,Wed Jul 15 2020 00:20:00 GMT+0900 (GMT+09:00)
1552,fitbit,Tue Jul 14 2020 07:55:00 GMT+0900 (GMT+09:00),0,rem,300,Wed Jul 15 2020 00:20:00 GMT+0900 (GMT+09:00)
1553,fitbit,Tue Jul 14 2020 08:00:00 GMT+0900 (GMT+09:00),0,wake,300,Wed Jul 15 2020 00:20:00 GMT+0900 (GMT+09:00)
1554,fitbit,Tue Jul 14 2020 08:05:00 GMT+0900 (GMT+09:00),0,light,1560,Wed Jul 15 2020 00:20:00 GMT+0900 (GMT+09:00)
1555,fitbit,Tue Jul 14 2020 08:31:00 GMT+0900 (GMT+09:00),0,wake,210,Wed Jul 15 2020 00:20:00 GMT+0900 (GMT+09:00)
1556,fitbit,Tue Jul 14 2020 08:34:30 GMT+0900 (GMT+09:00),0,light,60,Wed Jul 15 2020 00:20:00 GMT+0900 (GMT+09:00)
1557,fitbit,Tue Jul 14 2020 08:35:30 GMT+0900 (GMT+09:00),0,rem,1530,Wed Jul 15 2020 00:20:00 GMT+0900 (GMT+09:00)
1558,fitbit,Tue Jul 14 2020 09:01:00 GMT+0900 (GMT+09:00),0,light,2100,Wed Jul 15 2020 00:20:00 GMT+0900 (GMT+09:00)
1559,fitbit,Tue Jul 14 2020 09:36:00 GMT+0900 (GMT+09:00),0,wake,660,Wed Jul 15 2020 00:20:00 GMT+0900 (GMT+09:00)
1560,fitbit,Wed Jul 15 2020 02:11:00 GMT+0900 (GMT+09:00),0,wake,840,Thu Jul 16 2020 00:20:00 GMT+0900 (GMT+09:00)
1561,fitbit,Wed Jul 15 2020 02:25:00 GMT+0900 (GMT+09:00),0,light,990,Thu Jul 16 2020 00:20:00 GMT+0900 (GMT+09:00)
1562,fitbit,Wed Jul 15 2020 02:41:30 GMT+0900 (GMT+09:00),0,deep,3000,Thu Jul 16 2020 00:20:00 GMT+0900 (GMT+09:00)
1563,fitbit,Wed Jul 15 2020 03:31:30 GMT+0900 (GMT+09:00),0,light,150,Thu Jul 16 2020 00:20:00 GMT+0900 (GMT+09:00)
1564,fitbit,Wed Jul 15 2020 03:34:00 GMT+0900 (GMT+09:00),0,rem,1380,Thu Jul 16 2020 00:20:00 GMT+0900 (GMT+09:00)
1565,fitbit,Wed Jul 15 2020 03:57:00 GMT+0900 (GMT+09:00),0,light,270,Thu Jul 16 2020 00:20:00 GMT+0900 (GMT+09:00)
1566,fitbit,Wed Jul 15 2020 04:01:30 GMT+0900 (GMT+09:00),0,deep,1560,Thu Jul 16 2020 00:20:00 GMT+0900 (GMT+09:00)
1567,fitbit,Wed Jul 15 2020 04:27:30 GMT+0900 (GMT+09:00),0,light,420,Thu Jul 16 2020 00:20:00 GMT+0900 (GMT+09:00)
1568,fitbit,Wed Jul 15 2020 04:34:30 GMT+0900 (GMT+09:00),0,deep,1830,Thu Jul 16 2020 00:20:00 GMT+0900 (GMT+09:00)
1569,fitbit,Wed Jul 15 2020 05:05:00 GMT+0900 (GMT+09:00),0,light,600,Thu Jul 16 2020 00:20:00 GMT+0900 (GMT+09:00)
1570,fitbit,Wed Jul 15 2020 05:15:00 GMT+0900 (GMT+09:00),0,wake,600,Thu Jul 16 2020 00:20:00 GMT+0900 (GMT+09:00)
1571,fitbit,Wed Jul 15 2020 05:25:00 GMT+0900 (GMT+09:00),0,light,4470,Thu Jul 16 2020 00:20:00 GMT+0900 (GMT+09:00)
1572,fitbit,Wed Jul 15 2020 06:39:30 GMT+0900 (GMT+09:00),0,rem,390,Thu Jul 16 2020 00:20:00 GMT+0900 (GMT+09:00)
1573,fitbit,Wed Jul 15 2020 06:46:00 GMT+0900 (GMT+09:00),0,light,420,Thu Jul 16 2020 00:20:00 GMT+0900 (GMT+09:00)
1574,fitbit,Wed Jul 15 2020 06:53:00 GMT+0900 (GMT+09:00),0,wake,540,Thu Jul 16 2020 00:20:00 GMT+0900 (GMT+09:00)
1575,fitbit,Wed Jul 15 2020 07:02:00 GMT+0900 (GMT+09:00),0,light,660,Thu Jul 16 2020 00:20:00 GMT+0900 (GMT+09:00)
1576,fitbit,Wed Jul 15 2020 07:13:00 GMT+0900 (GMT+09:00),0,wake,300,Thu Jul 16 2020 00:20:00 GMT+0900 (GMT+09:00)
1577,fitbit,Wed Jul 15 2020 07:18:00 GMT+0900 (GMT+09:00),0,light,240,Thu Jul 16 2020 00:20:00 GMT+0900 (GMT+09:00)
1578,fitbit,Wed Jul 15 2020 07:22:00 GMT+0900 (GMT+09:00),0,rem,690,Thu Jul 16 2020 00:20:00 GMT+0900 (GMT+09:00)
1579,fitbit,Wed Jul 15 2020 07:33:30 GMT+0900 (GMT+09:00),0,light,3180,Thu Jul 16 2020 00:20:00 GMT+0900 (GMT+09:00)
1580,fitbit,Wed Jul 15 2020 08:26:30 GMT+0900 (GMT+09:00),0,wake,360,Thu Jul 16 2020 00:20:00 GMT+0900 (GMT+09:00)
1581,fitbit,Wed Jul 15 2020 08:32:30 GMT+0900 (GMT+09:00),0,light,360,Thu Jul 16 2020 00:20:00 GMT+0900 (GMT+09:00)
1582,fitbit,Wed Jul 15 2020 08:38:30 GMT+0900 (GMT+09:00),0,rem,720,Thu Jul 16 2020 00:20:00 GMT+0900 (GMT+09:00)
1583,fitbit,Wed Jul 15 2020 08:50:30 GMT+0900 (GMT+09:00),0,light,1410,Thu Jul 16 2020 00:20:00 GMT+0900 (GMT+09:00)
1584,fitbit,Thu Jul 16 2020 01:48:00 GMT+0900 (GMT+09:00),0,wake,240,Fri Jul 17 2020 00:20:00 GMT+0900 (GMT+09:00)
1585,fitbit,Thu Jul 16 2020 01:52:00 GMT+0900 (GMT+09:00),0,light,840,Fri Jul 17 2020 00:20:00 GMT+0900 (GMT+09:00)
1586,fitbit,Thu Jul 16 2020 02:06:00 GMT+0900 (GMT+09:00),0,deep,1470,Fri Jul 17 2020 00:20:00 GMT+0900 (GMT+09:00)
1587,fitbit,Thu Jul 16 2020 02:30:30 GMT+0900 (GMT+09:00),0,light,2010,Fri Jul 17 2020 00:20:00 GMT+0900 (GMT+09:00)
1588,fitbit,Thu Jul 16 2020 03:04:00 GMT+0900 (GMT+09:00),0,deep,600,Fri Jul 17 2020 00:20:00 GMT+0900 (GMT+09:00)
1589,fitbit,Thu Jul 16 2020 03:14:00 GMT+0900 (GMT+09:00),0,light,1320,Fri Jul 17 2020 00:20:00 GMT+0900 (GMT+09:00)
1590,fitbit,Thu Jul 16 2020 03:36:00 GMT+0900 (GMT+09:00),0,wake,480,Fri Jul 17 2020 00:20:00 GMT+0900 (GMT+09:00)
1591,fitbit,Thu Jul 16 2020 03:44:00 GMT+0900 (GMT+09:00),0,light,2160,Fri Jul 17 2020 00:20:00 GMT+0900 (GMT+09:00)
1592,fitbit,Thu Jul 16 2020 04:20:00 GMT+0900 (GMT+09:00),0,deep,1290,Fri Jul 17 2020 00:20:00 GMT+0900 (GMT+09:00)
1593,fitbit,Thu Jul 16 2020 04:41:30 GMT+0900 (GMT+09:00),0,wake,240,Fri Jul 17 2020 00:20:00 GMT+0900 (GMT+09:00)
1594,fitbit,Thu Jul 16 2020 04:45:30 GMT+0900 (GMT+09:00),0,light,1800,Fri Jul 17 2020 00:20:00 GMT+0900 (GMT+09:00)
1595,fitbit,Thu Jul 16 2020 05:15:30 GMT+0900 (GMT+09:00),0,deep,1980,Fri Jul 17 2020 00:20:00 GMT+0900 (GMT+09:00)
1596,fitbit,Thu Jul 16 2020 05:48:30 GMT+0900 (GMT+09:00),0,light,1230,Fri Jul 17 2020 00:20:00 GMT+0900 (GMT+09:00)
1597,fitbit,Thu Jul 16 2020 06:09:00 GMT+0900 (GMT+09:00),0,wake,300,Fri Jul 17 2020 00:20:00 GMT+0900 (GMT+09:00)
1598,fitbit,Thu Jul 16 2020 06:14:00 GMT+0900 (GMT+09:00),0,light,240,Fri Jul 17 2020 00:20:00 GMT+0900 (GMT+09:00)
1599,fitbit,Thu Jul 16 2020 06:18:00 GMT+0900 (GMT+09:00),0,rem,270,Fri Jul 17 2020 00:20:00 GMT+0900 (GMT+09:00)
1600,fitbit,Thu Jul 16 2020 06:22:30 GMT+0900 (GMT+09:00),0,wake,360,Fri Jul 17 2020 00:20:00 GMT+0900 (GMT+09:00)
1601,fitbit,Thu Jul 16 2020 06:28:30 GMT+0900 (GMT+09:00),0,light,2850,Fri Jul 17 2020 00:20:00 GMT+0900 (GMT+09:00)
1602,fitbit,Thu Jul 16 2020 07:16:00 GMT+0900 (GMT+09:00),0,rem,1410,Fri Jul 17 2020 00:20:00 GMT+0900 (GMT+09:00)
1603,fitbit,Thu Jul 16 2020 07:39:30 GMT+0900 (GMT+09:00),0,light,450,Fri Jul 17 2020 00:20:00 GMT+0900 (GMT+09:00)
1604,fitbit,Thu Jul 16 2020 07:47:00 GMT+0900 (GMT+09:00),0,rem,300,Fri Jul 17 2020 00:20:00 GMT+0900 (GMT+09:00)
1605,fitbit,Thu Jul 16 2020 07:52:00 GMT+0900 (GMT+09:00),0,light,1230,Fri Jul 17 2020 00:20:00 GMT+0900 (GMT+09:00)
1606,fitbit,Thu Jul 16 2020 08:12:30 GMT+0900 (GMT+09:00),0,deep,1020,Fri Jul 17 2020 00:20:00 GMT+0900 (GMT+09:00)
1607,fitbit,Thu Jul 16 2020 08:29:30 GMT+0900 (GMT+09:00),0,light,420,Fri Jul 17 2020 00:20:00 GMT+0900 (GMT+09:00)
1608,fitbit,Thu Jul 16 2020 08:36:30 GMT+0900 (GMT+09:00),0,rem,1350,Fri Jul 17 2020 00:20:00 GMT+0900 (GMT+09:00)
1609,fitbit,Fri Jul 17 2020 00:51:00 GMT+0900 (GMT+09:00),0,wake,300,Sat Jul 18 2020 00:20:00 GMT+0900 (GMT+09:00)
1610,fitbit,Fri Jul 17 2020 00:56:00 GMT+0900 (GMT+09:00),0,light,510,Sat Jul 18 2020 00:20:00 GMT+0900 (GMT+09:00)
1611,fitbit,Fri Jul 17 2020 01:04:30 GMT+0900 (GMT+09:00),0,wake,300,Sat Jul 18 2020 00:20:00 GMT+0900 (GMT+09:00)
1612,fitbit,Fri Jul 17 2020 01:09:30 GMT+0900 (GMT+09:00),0,light,1830,Sat Jul 18 2020 00:20:00 GMT+0900 (GMT+09:00)
1613,fitbit,Fri Jul 17 2020 01:40:00 GMT+0900 (GMT+09:00),0,deep,1950,Sat Jul 18 2020 00:20:00 GMT+0900 (GMT+09:00)
1614,fitbit,Fri Jul 17 2020 02:12:30 GMT+0900 (GMT+09:00),0,light,2310,Sat Jul 18 2020 00:20:00 GMT+0900 (GMT+09:00)
1615,fitbit,Fri Jul 17 2020 02:51:00 GMT+0900 (GMT+09:00),0,deep,570,Sat Jul 18 2020 00:20:00 GMT+0900 (GMT+09:00)
1616,fitbit,Fri Jul 17 2020 03:00:30 GMT+0900 (GMT+09:00),0,light,780,Sat Jul 18 2020 00:20:00 GMT+0900 (GMT+09:00)
1617,fitbit,Fri Jul 17 2020 03:13:30 GMT+0900 (GMT+09:00),0,deep,1020,Sat Jul 18 2020 00:20:00 GMT+0900 (GMT+09:00)
1618,fitbit,Fri Jul 17 2020 03:30:30 GMT+0900 (GMT+09:00),0,light,690,Sat Jul 18 2020 00:20:00 GMT+0900 (GMT+09:00)
1619,fitbit,Fri Jul 17 2020 03:42:00 GMT+0900 (GMT+09:00),0,deep,480,Sat Jul 18 2020 00:20:00 GMT+0900 (GMT+09:00)
1620,fitbit,Fri Jul 17 2020 03:50:00 GMT+0900 (GMT+09:00),0,light,510,Sat Jul 18 2020 00:20:00 GMT+0900 (GMT+09:00)
1621,fitbit,Fri Jul 17 2020 03:58:30 GMT+0900 (GMT+09:00),0,wake,360,Sat Jul 18 2020 00:20:00 GMT+0900 (GMT+09:00)
1622,fitbit,Fri Jul 17 2020 04:04:30 GMT+0900 (GMT+09:00),0,light,510,Sat Jul 18 2020 00:20:00 GMT+0900 (GMT+09:00)
1623,fitbit,Fri Jul 17 2020 04:13:00 GMT+0900 (GMT+09:00),0,wake,210,Sat Jul 18 2020 00:20:00 GMT+0900 (GMT+09:00)
1624,fitbit,Fri Jul 17 2020 04:16:30 GMT+0900 (GMT+09:00),0,rem,300,Sat Jul 18 2020 00:20:00 GMT+0900 (GMT+09:00)
1625,fitbit,Fri Jul 17 2020 04:21:30 GMT+0900 (GMT+09:00),0,light,390,Sat Jul 18 2020 00:20:00 GMT+0900 (GMT+09:00)
1626,fitbit,Fri Jul 17 2020 04:28:00 GMT+0900 (GMT+09:00),0,wake,390,Sat Jul 18 2020 00:20:00 GMT+0900 (GMT+09:00)
1627,fitbit,Fri Jul 17 2020 04:34:30 GMT+0900 (GMT+09:00),0,light,960,Sat Jul 18 2020 00:20:00 GMT+0900 (GMT+09:00)
1628,fitbit,Fri Jul 17 2020 04:50:30 GMT+0900 (GMT+09:00),0,deep,540,Sat Jul 18 2020 00:20:00 GMT+0900 (GMT+09:00)
1629,fitbit,Fri Jul 17 2020 04:59:30 GMT+0900 (GMT+09:00),0,light,1020,Sat Jul 18 2020 00:20:00 GMT+0900 (GMT+09:00)
1630,fitbit,Fri Jul 17 2020 05:16:30 GMT+0900 (GMT+09:00),0,deep,360,Sat Jul 18 2020 00:20:00 GMT+0900 (GMT+09:00)
1631,fitbit,Fri Jul 17 2020 05:22:30 GMT+0900 (GMT+09:00),0,light,390,Sat Jul 18 2020 00:20:00 GMT+0900 (GMT+09:00)
1632,fitbit,Fri Jul 17 2020 05:29:00 GMT+0900 (GMT+09:00),0,rem,300,Sat Jul 18 2020 00:20:00 GMT+0900 (GMT+09:00)
1633,fitbit,Fri Jul 17 2020 05:34:00 GMT+0900 (GMT+09:00),0,light,780,Sat Jul 18 2020 00:20:00 GMT+0900 (GMT+09:00)
1634,fitbit,Fri Jul 17 2020 05:47:00 GMT+0900 (GMT+09:00),0,rem,1140,Sat Jul 18 2020 00:20:00 GMT+0900 (GMT+09:00)
1635,fitbit,Fri Jul 17 2020 06:06:00 GMT+0900 (GMT+09:00),0,light,660,Sat Jul 18 2020 00:20:00 GMT+0900 (GMT+09:00)
1636,fitbit,Fri Jul 17 2020 06:17:00 GMT+0900 (GMT+09:00),0,rem,780,Sat Jul 18 2020 00:20:00 GMT+0900 (GMT+09:00)
1637,fitbit,Fri Jul 17 2020 06:30:00 GMT+0900 (GMT+09:00),0,light,570,Sat Jul 18 2020 00:20:00 GMT+0900 (GMT+09:00)
1638,fitbit,Fri Jul 17 2020 06:39:30 GMT+0900 (GMT+09:00),0,deep,2130,Sat Jul 18 2020 00:20:00 GMT+0900 (GMT+09:00)
1639,fitbit,Fri Jul 17 2020 07:15:00 GMT+0900 (GMT+09:00),0,light,1020,Sat Jul 18 2020 00:20:00 GMT+0900 (GMT+09:00)
1640,fitbit,Fri Jul 17 2020 07:32:00 GMT+0900 (GMT+09:00),0,wake,720,Sat Jul 18 2020 00:20:00 GMT+0900 (GMT+09:00)
1641,fitbit,Fri Jul 17 2020 07:44:00 GMT+0900 (GMT+09:00),0,light,3930,Sat Jul 18 2020 00:20:00 GMT+0900 (GMT+09:00)
1642,fitbit,Fri Jul 17 2020 08:49:30 GMT+0900 (GMT+09:00),0,rem,600,Sat Jul 18 2020 00:20:00 GMT+0900 (GMT+09:00)
1643,fitbit,Fri Jul 17 2020 08:59:30 GMT+0900 (GMT+09:00),0,light,1710,Sat Jul 18 2020 00:20:00 GMT+0900 (GMT+09:00)
1644,fitbit,Fri Jul 17 2020 09:28:00 GMT+0900 (GMT+09:00),0,wake,240,Sat Jul 18 2020 00:20:00 GMT+0900 (GMT+09:00)
1645,fitbit,Fri Jul 17 2020 09:32:00 GMT+0900 (GMT+09:00),0,light,960,Sat Jul 18 2020 00:20:00 GMT+0900 (GMT+09:00)
1646,fitbit,Fri Jul 17 2020 09:48:00 GMT+0900 (GMT+09:00),0,wake,300,Sat Jul 18 2020 00:20:00 GMT+0900 (GMT+09:00)
1647,fitbit,Fri Jul 17 2020 09:53:00 GMT+0900 (GMT+09:00),0,light,300,Sat Jul 18 2020 00:20:00 GMT+0900 (GMT+09:00)
1648,fitbit,Fri Jul 17 2020 09:58:00 GMT+0900 (GMT+09:00),0,wake,210,Sat Jul 18 2020 00:20:00 GMT+0900 (GMT+09:00)
1649,fitbit,Fri Jul 17 2020 10:01:30 GMT+0900 (GMT+09:00),0,light,150,Sat Jul 18 2020 00:20:00 GMT+0900 (GMT+09:00)
1650,fitbit,Fri Jul 17 2020 10:04:00 GMT+0900 (GMT+09:00),0,wake,720,Sat Jul 18 2020 00:20:00 GMT+0900 (GMT+09:00)
1651,fitbit,Fri Jul 17 2020 10:16:00 GMT+0900 (GMT+09:00),0,light,1230,Sat Jul 18 2020 00:20:00 GMT+0900 (GMT+09:00)
1652,fitbit,Fri Jul 17 2020 10:36:30 GMT+0900 (GMT+09:00),0,rem,1530,Sat Jul 18 2020 00:20:00 GMT+0900 (GMT+09:00)
1653,fitbit,Fri Jul 17 2020 11:02:00 GMT+0900 (GMT+09:00),0,light,1830,Sat Jul 18 2020 00:20:00 GMT+0900 (GMT+09:00)
1654,fitbit,Fri Jul 17 2020 11:32:30 GMT+0900 (GMT+09:00),0,wake,270,Sat Jul 18 2020 00:20:00 GMT+0900 (GMT+09:00)
1655,fitbit,Fri Jul 17 2020 11:37:00 GMT+0900 (GMT+09:00),0,light,1680,Sat Jul 18 2020 00:20:00 GMT+0900 (GMT+09:00)
1656,fitbit,Fri Jul 17 2020 12:05:00 GMT+0900 (GMT+09:00),0,wake,1620,Sat Jul 18 2020 00:20:00 GMT+0900 (GMT+09:00)
1657,fitbit,Fri Jul 17 2020 12:32:00 GMT+0900 (GMT+09:00),0,light,120,Sat Jul 18 2020 00:20:00 GMT+0900 (GMT+09:00)
1658,fitbit,Fri Jul 17 2020 12:34:00 GMT+0900 (GMT+09:00),0,wake,330,Sat Jul 18 2020 00:20:00 GMT+0900 (GMT+09:00)
1659,fitbit,Fri Jul 17 2020 12:39:30 GMT+0900 (GMT+09:00),0,light,420,Sat Jul 18 2020 00:20:00 GMT+0900 (GMT+09:00)
1660,fitbit,Sat Jul 18 2020 01:36:00 GMT+0900 (GMT+09:00),0,wake,900,Sun Jul 19 2020 00:20:00 GMT+0900 (GMT+09:00)
1661,fitbit,Sat Jul 18 2020 01:51:00 GMT+0900 (GMT+09:00),0,light,990,Sun Jul 19 2020 00:20:00 GMT+0900 (GMT+09:00)
1662,fitbit,Sat Jul 18 2020 02:07:30 GMT+0900 (GMT+09:00),0,deep,1380,Sun Jul 19 2020 00:20:00 GMT+0900 (GMT+09:00)
1663,fitbit,Sat Jul 18 2020 02:30:30 GMT+0900 (GMT+09:00),0,light,1440,Sun Jul 19 2020 00:20:00 GMT+0900 (GMT+09:00)
1664,fitbit,Sat Jul 18 2020 02:54:30 GMT+0900 (GMT+09:00),0,deep,2490,Sun Jul 19 2020 00:20:00 GMT+0900 (GMT+09:00)
1665,fitbit,Sat Jul 18 2020 03:36:00 GMT+0900 (GMT+09:00),0,light,840,Sun Jul 19 2020 00:20:00 GMT+0900 (GMT+09:00)
1666,fitbit,Sat Jul 18 2020 03:50:00 GMT+0900 (GMT+09:00),0,rem,1410,Sun Jul 19 2020 00:20:00 GMT+0900 (GMT+09:00)
1667,fitbit,Sat Jul 18 2020 04:13:30 GMT+0900 (GMT+09:00),0,light,2340,Sun Jul 19 2020 00:20:00 GMT+0900 (GMT+09:00)
1668,fitbit,Sat Jul 18 2020 04:52:30 GMT+0900 (GMT+09:00),0,deep,2250,Sun Jul 19 2020 00:20:00 GMT+0900 (GMT+09:00)
1669,fitbit,Sat Jul 18 2020 05:30:00 GMT+0900 (GMT+09:00),0,light,2400,Sun Jul 19 2020 00:20:00 GMT+0900 (GMT+09:00)
1670,fitbit,Sat Jul 18 2020 06:10:00 GMT+0900 (GMT+09:00),0,deep,270,Sun Jul 19 2020 00:20:00 GMT+0900 (GMT+09:00)
1671,fitbit,Sat Jul 18 2020 06:14:30 GMT+0900 (GMT+09:00),0,light,510,Sun Jul 19 2020 00:20:00 GMT+0900 (GMT+09:00)
1672,fitbit,Sat Jul 18 2020 06:23:00 GMT+0900 (GMT+09:00),0,deep,990,Sun Jul 19 2020 00:20:00 GMT+0900 (GMT+09:00)
1673,fitbit,Sat Jul 18 2020 06:39:30 GMT+0900 (GMT+09:00),0,light,30,Sun Jul 19 2020 00:20:00 GMT+0900 (GMT+09:00)
1674,fitbit,Sat Jul 18 2020 06:40:00 GMT+0900 (GMT+09:00),0,rem,1290,Sun Jul 19 2020 00:20:00 GMT+0900 (GMT+09:00)
1675,fitbit,Sat Jul 18 2020 07:01:30 GMT+0900 (GMT+09:00),0,light,3720,Sun Jul 19 2020 00:20:00 GMT+0900 (GMT+09:00)
1676,fitbit,Sat Jul 18 2020 08:03:30 GMT+0900 (GMT+09:00),0,rem,300,Sun Jul 19 2020 00:20:00 GMT+0900 (GMT+09:00)
1677,fitbit,Sat Jul 18 2020 08:08:30 GMT+0900 (GMT+09:00),0,wake,1290,Sun Jul 19 2020 00:20:00 GMT+0900 (GMT+09:00)
1678,fitbit,Sat Jul 18 2020 08:30:00 GMT+0900 (GMT+09:00),0,light,120,Sun Jul 19 2020 00:20:00 GMT+0900 (GMT+09:00)
1679,fitbit,Sat Jul 18 2020 08:32:00 GMT+0900 (GMT+09:00),0,wake,600,Sun Jul 19 2020 00:20:00 GMT+0900 (GMT+09:00)
1680,fitbit,Sat Jul 18 2020 08:42:00 GMT+0900 (GMT+09:00),0,light,2760,Sun Jul 19 2020 00:20:00 GMT+0900 (GMT+09:00)
1681,fitbit,Sat Jul 18 2020 09:28:00 GMT+0900 (GMT+09:00),0,rem,870,Sun Jul 19 2020 00:20:00 GMT+0900 (GMT+09:00)
1682,fitbit,Sat Jul 18 2020 09:42:30 GMT+0900 (GMT+09:00),0,wake,360,Sun Jul 19 2020 00:20:00 GMT+0900 (GMT+09:00)
1683,fitbit,Sat Jul 18 2020 09:48:30 GMT+0900 (GMT+09:00),0,light,540,Sun Jul 19 2020 00:20:00 GMT+0900 (GMT+09:00)
1684,fitbit,Sat Jul 18 2020 09:57:30 GMT+0900 (GMT+09:00),0,rem,1230,Sun Jul 19 2020 00:20:00 GMT+0900 (GMT+09:00)
1685,fitbit,Sat Jul 18 2020 10:18:00 GMT+0900 (GMT+09:00),0,light,3030,Sun Jul 19 2020 00:20:00 GMT+0900 (GMT+09:00)
1686,fitbit,Sat Jul 18 2020 11:08:30 GMT+0900 (GMT+09:00),0,wake,1290,Sun Jul 19 2020 00:20:00 GMT+0900 (GMT+09:00)
1687,fitbit,Sun Jul 19 2020 01:31:30 GMT+0900 (GMT+09:00),0,wake,810,Mon Jul 20 2020 00:20:00 GMT+0900 (GMT+09:00)
1688,fitbit,Sun Jul 19 2020 01:45:00 GMT+0900 (GMT+09:00),0,light,630,Mon Jul 20 2020 00:20:00 GMT+0900 (GMT+09:00)
1689,fitbit,Sun Jul 19 2020 01:55:30 GMT+0900 (GMT+09:00),0,wake,330,Mon Jul 20 2020 00:20:00 GMT+0900 (GMT+09:00)
1690,fitbit,Sun Jul 19 2020 02:01:00 GMT+0900 (GMT+09:00),0,light,1770,Mon Jul 20 2020 00:20:00 GMT+0900 (GMT+09:00)
1691,fitbit,Sun Jul 19 2020 02:30:30 GMT+0900 (GMT+09:00),0,deep,450,Mon Jul 20 2020 00:20:00 GMT+0900 (GMT+09:00)
1692,fitbit,Sun Jul 19 2020 02:38:00 GMT+0900 (GMT+09:00),0,light,1470,Mon Jul 20 2020 00:20:00 GMT+0900 (GMT+09:00)
1693,fitbit,Sun Jul 19 2020 03:02:30 GMT+0900 (GMT+09:00),0,deep,3150,Mon Jul 20 2020 00:20:00 GMT+0900 (GMT+09:00)
1694,fitbit,Sun Jul 19 2020 03:55:00 GMT+0900 (GMT+09:00),0,light,1380,Mon Jul 20 2020 00:20:00 GMT+0900 (GMT+09:00)
1695,fitbit,Sun Jul 19 2020 04:18:00 GMT+0900 (GMT+09:00),0,rem,1110,Mon Jul 20 2020 00:20:00 GMT+0900 (GMT+09:00)
1696,fitbit,Sun Jul 19 2020 04:36:30 GMT+0900 (GMT+09:00),0,light,210,Mon Jul 20 2020 00:20:00 GMT+0900 (GMT+09:00)
1697,fitbit,Sun Jul 19 2020 04:40:00 GMT+0900 (GMT+09:00),0,deep,1110,Mon Jul 20 2020 00:20:00 GMT+0900 (GMT+09:00)
1698,fitbit,Sun Jul 19 2020 04:58:30 GMT+0900 (GMT+09:00),0,light,1140,Mon Jul 20 2020 00:20:00 GMT+0900 (GMT+09:00)
1699,fitbit,Sun Jul 19 2020 05:17:30 GMT+0900 (GMT+09:00),0,deep,480,Mon Jul 20 2020 00:20:00 GMT+0900 (GMT+09:00)
1700,fitbit,Sun Jul 19 2020 05:25:30 GMT+0900 (GMT+09:00),0,light,1620,Mon Jul 20 2020 00:20:00 GMT+0900 (GMT+09:00)
1701,fitbit,Sun Jul 19 2020 05:52:30 GMT+0900 (GMT+09:00),0,rem,270,Mon Jul 20 2020 00:20:00 GMT+0900 (GMT+09:00)
1702,fitbit,Sun Jul 19 2020 05:57:00 GMT+0900 (GMT+09:00),0,wake,270,Mon Jul 20 2020 00:20:00 GMT+0900 (GMT+09:00)
1703,fitbit,Sun Jul 19 2020 06:01:30 GMT+0900 (GMT+09:00),0,light,930,Mon Jul 20 2020 00:20:00 GMT+0900 (GMT+09:00)
1704,fitbit,Sun Jul 19 2020 06:17:00 GMT+0900 (GMT+09:00),0,rem,270,Mon Jul 20 2020 00:20:00 GMT+0900 (GMT+09:00)
1705,fitbit,Sun Jul 19 2020 06:21:30 GMT+0900 (GMT+09:00),0,light,1170,Mon Jul 20 2020 00:20:00 GMT+0900 (GMT+09:00)
1706,fitbit,Sun Jul 19 2020 06:41:00 GMT+0900 (GMT+09:00),0,wake,300,Mon Jul 20 2020 00:20:00 GMT+0900 (GMT+09:00)
1707,fitbit,Sun Jul 19 2020 06:46:00 GMT+0900 (GMT+09:00),0,light,3480,Mon Jul 20 2020 00:20:00 GMT+0900 (GMT+09:00)
1708,fitbit,Sun Jul 19 2020 07:44:00 GMT+0900 (GMT+09:00),0,rem,630,Mon Jul 20 2020 00:20:00 GMT+0900 (GMT+09:00)
1709,fitbit,Sun Jul 19 2020 07:54:30 GMT+0900 (GMT+09:00),0,wake,270,Mon Jul 20 2020 00:20:00 GMT+0900 (GMT+09:00)
1710,fitbit,Sun Jul 19 2020 07:59:00 GMT+0900 (GMT+09:00),0,light,2280,Mon Jul 20 2020 00:20:00 GMT+0900 (GMT+09:00)
1711,fitbit,Sun Jul 19 2020 08:37:00 GMT+0900 (GMT+09:00),0,deep,1320,Mon Jul 20 2020 00:20:00 GMT+0900 (GMT+09:00)
1712,fitbit,Sun Jul 19 2020 08:59:00 GMT+0900 (GMT+09:00),0,light,1050,Mon Jul 20 2020 00:20:00 GMT+0900 (GMT+09:00)
1713,fitbit,Sun Jul 19 2020 09:16:30 GMT+0900 (GMT+09:00),0,rem,360,Mon Jul 20 2020 00:20:00 GMT+0900 (GMT+09:00)
1714,fitbit,Sun Jul 19 2020 09:22:30 GMT+0900 (GMT+09:00),0,light,4530,Mon Jul 20 2020 00:20:00 GMT+0900 (GMT+09:00)
1715,fitbit,Sun Jul 19 2020 10:38:00 GMT+0900 (GMT+09:00),0,wake,1080,Mon Jul 20 2020 00:20:00 GMT+0900 (GMT+09:00)
1716,fitbit,Sun Jul 19 2020 10:56:00 GMT+0900 (GMT+09:00),0,light,1050,Mon Jul 20 2020 00:20:00 GMT+0900 (GMT+09:00)
1717,fitbit,Sun Jul 19 2020 11:13:30 GMT+0900 (GMT+09:00),0,wake,390,Mon Jul 20 2020 00:20:00 GMT+0900 (GMT+09:00)
1718,fitbit,Sun Jul 19 2020 11:20:00 GMT+0900 (GMT+09:00),0,light,720,Mon Jul 20 2020 00:20:00 GMT+0900 (GMT+09:00)
1719,fitbit,Mon Jul 20 2020 01:30:30 GMT+0900 (GMT+09:00),0,light,2400,Tue Jul 21 2020 00:20:00 GMT+0900 (GMT+09:00)
1720,fitbit,Mon Jul 20 2020 02:10:30 GMT+0900 (GMT+09:00),0,deep,1320,Tue Jul 21 2020 00:20:00 GMT+0900 (GMT+09:00)
1721,fitbit,Mon Jul 20 2020 02:32:30 GMT+0900 (GMT+09:00),0,light,2640,Tue Jul 21 2020 00:20:00 GMT+0900 (GMT+09:00)
1722,fitbit,Mon Jul 20 2020 03:16:30 GMT+0900 (GMT+09:00),0,deep,450,Tue Jul 21 2020 00:20:00 GMT+0900 (GMT+09:00)
1723,fitbit,Mon Jul 20 2020 03:24:00 GMT+0900 (GMT+09:00),0,light,2970,Tue Jul 21 2020 00:20:00 GMT+0900 (GMT+09:00)
1724,fitbit,Mon Jul 20 2020 04:13:30 GMT+0900 (GMT+09:00),0,deep,2340,Tue Jul 21 2020 00:20:00 GMT+0900 (GMT+09:00)
1725,fitbit,Mon Jul 20 2020 04:52:30 GMT+0900 (GMT+09:00),0,light,1560,Tue Jul 21 2020 00:20:00 GMT+0900 (GMT+09:00)
1726,fitbit,Mon Jul 20 2020 05:18:30 GMT+0900 (GMT+09:00),0,deep,870,Tue Jul 21 2020 00:20:00 GMT+0900 (GMT+09:00)
1727,fitbit,Mon Jul 20 2020 05:33:00 GMT+0900 (GMT+09:00),0,light,690,Tue Jul 21 2020 00:20:00 GMT+0900 (GMT+09:00)
1728,fitbit,Mon Jul 20 2020 05:44:30 GMT+0900 (GMT+09:00),0,wake,930,Tue Jul 21 2020 00:20:00 GMT+0900 (GMT+09:00)
1729,fitbit,Mon Jul 20 2020 06:00:00 GMT+0900 (GMT+09:00),0,light,3630,Tue Jul 21 2020 00:20:00 GMT+0900 (GMT+09:00)
1730,fitbit,Mon Jul 20 2020 07:00:30 GMT+0900 (GMT+09:00),0,rem,270,Tue Jul 21 2020 00:20:00 GMT+0900 (GMT+09:00)
1731,fitbit,Mon Jul 20 2020 07:05:00 GMT+0900 (GMT+09:00),0,wake,300,Tue Jul 21 2020 00:20:00 GMT+0900 (GMT+09:00)
1732,fitbit,Mon Jul 20 2020 07:10:00 GMT+0900 (GMT+09:00),0,light,2460,Tue Jul 21 2020 00:20:00 GMT+0900 (GMT+09:00)
1733,fitbit,Mon Jul 20 2020 07:51:00 GMT+0900 (GMT+09:00),0,wake,450,Tue Jul 21 2020 00:20:00 GMT+0900 (GMT+09:00)
1734,fitbit,Mon Jul 20 2020 07:58:30 GMT+0900 (GMT+09:00),0,rem,1410,Tue Jul 21 2020 00:20:00 GMT+0900 (GMT+09:00)
1735,fitbit,Mon Jul 20 2020 08:22:00 GMT+0900 (GMT+09:00),0,light,2940,Tue Jul 21 2020 00:20:00 GMT+0900 (GMT+09:00)
1736,fitbit,Mon Jul 20 2020 09:11:00 GMT+0900 (GMT+09:00),0,wake,900,Tue Jul 21 2020 00:20:00 GMT+0900 (GMT+09:00)
1737,fitbit,Mon Jul 20 2020 09:26:00 GMT+0900 (GMT+09:00),0,light,120,Tue Jul 21 2020 00:20:00 GMT+0900 (GMT+09:00)
1738,fitbit,Mon Jul 20 2020 09:28:00 GMT+0900 (GMT+09:00),0,wake,810,Tue Jul 21 2020 00:20:00 GMT+0900 (GMT+09:00)
1739,fitbit,Mon Jul 20 2020 09:41:30 GMT+0900 (GMT+09:00),0,light,180,Tue Jul 21 2020 00:20:00 GMT+0900 (GMT+09:00)
1740,fitbit,Mon Jul 20 2020 09:44:30 GMT+0900 (GMT+09:00),0,wake,360,Tue Jul 21 2020 00:20:00 GMT+0900 (GMT+09:00)
