id,name,date,room,fat,weight,bmi,logId,timestamp
1,API,Mon Feb 24 2020 23:59:59 GMT+0900 (GMT+09:00),0,,60,20.52,1582588799000,Tue Feb 25 2020 00:10:00 GMT+0900 (GMT+09:00)
2,Aria,Wed Feb 26 2020 00:35:02 GMT+0900 (GMT+09:00),0,12.079000473022461,59.2,20.25,1582677302000,Thu Feb 27 2020 00:10:00 GMT+0900 (GMT+09:00)
3,Aria,Wed Feb 26 2020 09:01:40 GMT+0900 (GMT+09:00),0,12.222000122070312,59.4,20.31,1582707700000,Thu Feb 27 2020 00:10:00 GMT+0900 (GMT+09:00)
4,Aria,Thu Feb 27 2020 00:34:18 GMT+0900 (GMT+09:00),0,11.848999977111816,59,20.18,1582763658000,Fri Feb 28 2020 00:10:00 GMT+0900 (GMT+09:00)
5,Aria,Thu Feb 27 2020 08:40:03 GMT+0900 (GMT+09:00),0,12.111000061035156,59.4,20.31,1582792803000,Fri Feb 28 2020 00:10:00 GMT+0900 (GMT+09:00)
6,Aria,Fri Feb 28 2020 01:12:35 GMT+0900 (GMT+09:00),0,11.904000282287598,58.8,20.11,1582852355000,Sat Feb 29 2020 00:10:00 GMT+0900 (GMT+09:00)
7,Aria,Fri Feb 28 2020 09:12:47 GMT+0900 (GMT+09:00),0,12.052000045776367,59.2,20.25,1582881167000,Sat Feb 29 2020 00:10:00 GMT+0900 (GMT+09:00)
8,Aria,Sat Feb 29 2020 00:54:51 GMT+0900 (GMT+09:00),0,11.682999610900879,60.2,20.59,1582937691000,Sun Mar 01 2020 00:10:00 GMT+0900 (GMT+09:00)
9,Aria,Sat Feb 29 2020 09:06:10 GMT+0900 (GMT+09:00),0,11.859000205993652,60.6,20.72,1582967170000,Sun Mar 01 2020 00:10:00 GMT+0900 (GMT+09:00)
10,Aria,Sat Feb 29 2020 23:42:23 GMT+0900 (GMT+09:00),0,11.515000343322754,59.4,20.31,1583019743000,Sun Mar 01 2020 00:10:00 GMT+0900 (GMT+09:00)
11,Aria,Sun Mar 01 2020 09:08:55 GMT+0900 (GMT+09:00),0,11.835000038146973,60,20.52,1583053735000,Mon Mar 02 2020 00:10:00 GMT+0900 (GMT+09:00)
12,Aria,Mon Mar 02 2020 00:57:58 GMT+0900 (GMT+09:00),0,11.383999824523926,59.4,20.31,1583110678000,Tue Mar 03 2020 00:10:00 GMT+0900 (GMT+09:00)
