id,name,date,room,level,seconds,timestamp
310,fitbit,Tue Apr 07 2020 01:09:00 GMT+0900 (GMT+09:00),0,wake,720,Wed Apr 08 2020 00:20:00 GMT+0900 (GMT+09:00)
311,fitbit,Tue Apr 07 2020 01:21:00 GMT+0900 (GMT+09:00),0,deep,390,Wed Apr 08 2020 00:20:00 GMT+0900 (GMT+09:00)
312,fitbit,Tue Apr 07 2020 01:27:30 GMT+0900 (GMT+09:00),0,light,1050,Wed Apr 08 2020 00:20:00 GMT+0900 (GMT+09:00)
313,fitbit,Tue Apr 07 2020 01:45:00 GMT+0900 (GMT+09:00),0,deep,2880,Wed Apr 08 2020 00:20:00 GMT+0900 (GMT+09:00)
314,fitbit,Tue Apr 07 2020 02:33:00 GMT+0900 (GMT+09:00),0,light,4140,Wed Apr 08 2020 00:20:00 GMT+0900 (GMT+09:00)
315,fitbit,Tue Apr 07 2020 03:42:00 GMT+0900 (GMT+09:00),0,rem,1860,Wed Apr 08 2020 00:20:00 GMT+0900 (GMT+09:00)
316,fitbit,Tue Apr 07 2020 04:13:00 GMT+0900 (GMT+09:00),0,light,1230,Wed Apr 08 2020 00:20:00 GMT+0900 (GMT+09:00)
317,fitbit,Tue Apr 07 2020 04:33:30 GMT+0900 (GMT+09:00),0,wake,660,Wed Apr 08 2020 00:20:00 GMT+0900 (GMT+09:00)
318,fitbit,Tue Apr 07 2020 04:44:30 GMT+0900 (GMT+09:00),0,light,4350,Wed Apr 08 2020 00:20:00 GMT+0900 (GMT+09:00)
319,fitbit,Tue Apr 07 2020 05:57:00 GMT+0900 (GMT+09:00),0,rem,1770,Wed Apr 08 2020 00:20:00 GMT+0900 (GMT+09:00)
320,fitbit,Tue Apr 07 2020 06:26:30 GMT+0900 (GMT+09:00),0,light,3930,Wed Apr 08 2020 00:20:00 GMT+0900 (GMT+09:00)
321,fitbit,Tue Apr 07 2020 07:32:00 GMT+0900 (GMT+09:00),0,rem,1320,Wed Apr 08 2020 00:20:00 GMT+0900 (GMT+09:00)
322,fitbit,Tue Apr 07 2020 07:54:00 GMT+0900 (GMT+09:00),0,light,1740,Wed Apr 08 2020 00:20:00 GMT+0900 (GMT+09:00)
323,fitbit,Tue Apr 07 2020 08:23:00 GMT+0900 (GMT+09:00),0,wake,810,Wed Apr 08 2020 00:20:00 GMT+0900 (GMT+09:00)
324,fitbit,Wed Apr 08 2020 01:06:30 GMT+0900 (GMT+09:00),0,wake,990,Thu Apr 09 2020 00:20:00 GMT+0900 (GMT+09:00)
325,fitbit,Wed Apr 08 2020 01:23:00 GMT+0900 (GMT+09:00),0,light,1530,Thu Apr 09 2020 00:20:00 GMT+0900 (GMT+09:00)
326,fitbit,Wed Apr 08 2020 01:48:30 GMT+0900 (GMT+09:00),0,deep,1590,Thu Apr 09 2020 00:20:00 GMT+0900 (GMT+09:00)
327,fitbit,Wed Apr 08 2020 02:15:00 GMT+0900 (GMT+09:00),0,light,270,Thu Apr 09 2020 00:20:00 GMT+0900 (GMT+09:00)
328,fitbit,Wed Apr 08 2020 02:19:30 GMT+0900 (GMT+09:00),0,rem,1170,Thu Apr 09 2020 00:20:00 GMT+0900 (GMT+09:00)
329,fitbit,Wed Apr 08 2020 02:39:00 GMT+0900 (GMT+09:00),0,light,2220,Thu Apr 09 2020 00:20:00 GMT+0900 (GMT+09:00)
330,fitbit,Wed Apr 08 2020 03:16:00 GMT+0900 (GMT+09:00),0,deep,2190,Thu Apr 09 2020 00:20:00 GMT+0900 (GMT+09:00)
331,fitbit,Wed Apr 08 2020 03:52:30 GMT+0900 (GMT+09:00),0,wake,210,Thu Apr 09 2020 00:20:00 GMT+0900 (GMT+09:00)
332,fitbit,Wed Apr 08 2020 03:56:00 GMT+0900 (GMT+09:00),0,light,3330,Thu Apr 09 2020 00:20:00 GMT+0900 (GMT+09:00)
333,fitbit,Wed Apr 08 2020 04:51:30 GMT+0900 (GMT+09:00),0,rem,2310,Thu Apr 09 2020 00:20:00 GMT+0900 (GMT+09:00)
334,fitbit,Wed Apr 08 2020 05:30:00 GMT+0900 (GMT+09:00),0,light,3840,Thu Apr 09 2020 00:20:00 GMT+0900 (GMT+09:00)
335,fitbit,Wed Apr 08 2020 06:34:00 GMT+0900 (GMT+09:00),0,rem,270,Thu Apr 09 2020 00:20:00 GMT+0900 (GMT+09:00)
336,fitbit,Wed Apr 08 2020 06:38:30 GMT+0900 (GMT+09:00),0,light,3360,Thu Apr 09 2020 00:20:00 GMT+0900 (GMT+09:00)
337,fitbit,Wed Apr 08 2020 23:27:30 GMT+0900 (GMT+09:00),0,wake,270,Fri Apr 10 2020 00:20:00 GMT+0900 (GMT+09:00)
338,fitbit,Wed Apr 08 2020 23:32:00 GMT+0900 (GMT+09:00),0,deep,2430,Fri Apr 10 2020 00:20:00 GMT+0900 (GMT+09:00)
339,fitbit,Thu Apr 09 2020 00:12:30 GMT+0900 (GMT+09:00),0,light,1920,Fri Apr 10 2020 00:20:00 GMT+0900 (GMT+09:00)
340,fitbit,Thu Apr 09 2020 00:44:30 GMT+0900 (GMT+09:00),0,deep,960,Fri Apr 10 2020 00:20:00 GMT+0900 (GMT+09:00)
341,fitbit,Thu Apr 09 2020 01:00:30 GMT+0900 (GMT+09:00),0,wake,330,Fri Apr 10 2020 00:20:00 GMT+0900 (GMT+09:00)
342,fitbit,Thu Apr 09 2020 01:06:00 GMT+0900 (GMT+09:00),0,light,1620,Fri Apr 10 2020 00:20:00 GMT+0900 (GMT+09:00)
343,fitbit,Thu Apr 09 2020 01:33:00 GMT+0900 (GMT+09:00),0,deep,450,Fri Apr 10 2020 00:20:00 GMT+0900 (GMT+09:00)
344,fitbit,Thu Apr 09 2020 01:40:30 GMT+0900 (GMT+09:00),0,wake,210,Fri Apr 10 2020 00:20:00 GMT+0900 (GMT+09:00)
345,fitbit,Thu Apr 09 2020 01:44:00 GMT+0900 (GMT+09:00),0,light,330,Fri Apr 10 2020 00:20:00 GMT+0900 (GMT+09:00)
346,fitbit,Thu Apr 09 2020 01:49:30 GMT+0900 (GMT+09:00),0,rem,540,Fri Apr 10 2020 00:20:00 GMT+0900 (GMT+09:00)
347,fitbit,Thu Apr 09 2020 01:58:30 GMT+0900 (GMT+09:00),0,light,1110,Fri Apr 10 2020 00:20:00 GMT+0900 (GMT+09:00)
348,fitbit,Thu Apr 09 2020 02:17:00 GMT+0900 (GMT+09:00),0,deep,360,Fri Apr 10 2020 00:20:00 GMT+0900 (GMT+09:00)
349,fitbit,Thu Apr 09 2020 02:23:00 GMT+0900 (GMT+09:00),0,light,2430,Fri Apr 10 2020 00:20:00 GMT+0900 (GMT+09:00)
350,fitbit,Thu Apr 09 2020 03:03:30 GMT+0900 (GMT+09:00),0,rem,2160,Fri Apr 10 2020 00:20:00 GMT+0900 (GMT+09:00)
351,fitbit,Thu Apr 09 2020 03:39:30 GMT+0900 (GMT+09:00),0,light,3660,Fri Apr 10 2020 00:20:00 GMT+0900 (GMT+09:00)
352,fitbit,Thu Apr 09 2020 04:40:30 GMT+0900 (GMT+09:00),0,deep,1050,Fri Apr 10 2020 00:20:00 GMT+0900 (GMT+09:00)
353,fitbit,Thu Apr 09 2020 04:58:00 GMT+0900 (GMT+09:00),0,light,30,Fri Apr 10 2020 00:20:00 GMT+0900 (GMT+09:00)
354,fitbit,Thu Apr 09 2020 04:58:30 GMT+0900 (GMT+09:00),0,rem,1770,Fri Apr 10 2020 00:20:00 GMT+0900 (GMT+09:00)
355,fitbit,Thu Apr 09 2020 05:28:00 GMT+0900 (GMT+09:00),0,light,990,Fri Apr 10 2020 00:20:00 GMT+0900 (GMT+09:00)
356,fitbit,Thu Apr 09 2020 05:44:30 GMT+0900 (GMT+09:00),0,rem,900,Fri Apr 10 2020 00:20:00 GMT+0900 (GMT+09:00)
357,fitbit,Thu Apr 09 2020 05:59:30 GMT+0900 (GMT+09:00),0,light,3930,Fri Apr 10 2020 00:20:00 GMT+0900 (GMT+09:00)
358,fitbit,Thu Apr 09 2020 07:05:00 GMT+0900 (GMT+09:00),0,rem,1590,Fri Apr 10 2020 00:20:00 GMT+0900 (GMT+09:00)
359,fitbit,Thu Apr 09 2020 07:31:30 GMT+0900 (GMT+09:00),0,light,390,Fri Apr 10 2020 00:20:00 GMT+0900 (GMT+09:00)
360,fitbit,Thu Apr 09 2020 07:38:00 GMT+0900 (GMT+09:00),0,wake,420,Fri Apr 10 2020 00:20:00 GMT+0900 (GMT+09:00)
361,fitbit,Thu Apr 09 2020 07:45:00 GMT+0900 (GMT+09:00),0,light,420,Fri Apr 10 2020 00:20:00 GMT+0900 (GMT+09:00)
362,fitbit,Thu Apr 09 2020 07:52:00 GMT+0900 (GMT+09:00),0,wake,210,Fri Apr 10 2020 00:20:00 GMT+0900 (GMT+09:00)
363,fitbit,Fri Apr 10 2020 00:48:00 GMT+0900 (GMT+09:00),0,wake,360,Sat Apr 11 2020 00:20:00 GMT+0900 (GMT+09:00)
364,fitbit,Fri Apr 10 2020 00:54:00 GMT+0900 (GMT+09:00),0,light,570,Sat Apr 11 2020 00:20:00 GMT+0900 (GMT+09:00)
365,fitbit,Fri Apr 10 2020 01:03:30 GMT+0900 (GMT+09:00),0,deep,1710,Sat Apr 11 2020 00:20:00 GMT+0900 (GMT+09:00)
366,fitbit,Fri Apr 10 2020 01:32:00 GMT+0900 (GMT+09:00),0,light,2430,Sat Apr 11 2020 00:20:00 GMT+0900 (GMT+09:00)
367,fitbit,Fri Apr 10 2020 02:12:30 GMT+0900 (GMT+09:00),0,rem,870,Sat Apr 11 2020 00:20:00 GMT+0900 (GMT+09:00)
368,fitbit,Fri Apr 10 2020 02:27:00 GMT+0900 (GMT+09:00),0,light,720,Sat Apr 11 2020 00:20:00 GMT+0900 (GMT+09:00)
369,fitbit,Fri Apr 10 2020 02:39:00 GMT+0900 (GMT+09:00),0,deep,2490,Sat Apr 11 2020 00:20:00 GMT+0900 (GMT+09:00)
370,fitbit,Fri Apr 10 2020 03:20:30 GMT+0900 (GMT+09:00),0,light,5610,Sat Apr 11 2020 00:20:00 GMT+0900 (GMT+09:00)
371,fitbit,Fri Apr 10 2020 04:54:00 GMT+0900 (GMT+09:00),0,rem,1200,Sat Apr 11 2020 00:20:00 GMT+0900 (GMT+09:00)
372,fitbit,Fri Apr 10 2020 05:14:00 GMT+0900 (GMT+09:00),0,light,1050,Sat Apr 11 2020 00:20:00 GMT+0900 (GMT+09:00)
373,fitbit,Fri Apr 10 2020 05:31:30 GMT+0900 (GMT+09:00),0,rem,1500,Sat Apr 11 2020 00:20:00 GMT+0900 (GMT+09:00)
374,fitbit,Fri Apr 10 2020 05:56:30 GMT+0900 (GMT+09:00),0,light,1950,Sat Apr 11 2020 00:20:00 GMT+0900 (GMT+09:00)
375,fitbit,Fri Apr 10 2020 06:29:00 GMT+0900 (GMT+09:00),0,rem,1800,Sat Apr 11 2020 00:20:00 GMT+0900 (GMT+09:00)
376,fitbit,Fri Apr 10 2020 06:59:00 GMT+0900 (GMT+09:00),0,light,330,Sat Apr 11 2020 00:20:00 GMT+0900 (GMT+09:00)
377,fitbit,Fri Apr 10 2020 07:04:30 GMT+0900 (GMT+09:00),0,rem,330,Sat Apr 11 2020 00:20:00 GMT+0900 (GMT+09:00)
378,fitbit,Fri Apr 10 2020 07:10:00 GMT+0900 (GMT+09:00),0,light,1110,Sat Apr 11 2020 00:20:00 GMT+0900 (GMT+09:00)
379,fitbit,Fri Apr 10 2020 07:28:30 GMT+0900 (GMT+09:00),0,rem,540,Sat Apr 11 2020 00:20:00 GMT+0900 (GMT+09:00)
380,fitbit,Fri Apr 10 2020 07:37:30 GMT+0900 (GMT+09:00),0,light,1200,Sat Apr 11 2020 00:20:00 GMT+0900 (GMT+09:00)
381,fitbit,Fri Apr 10 2020 07:57:30 GMT+0900 (GMT+09:00),0,wake,2010,Sat Apr 11 2020 00:20:00 GMT+0900 (GMT+09:00)
382,fitbit,Sat Apr 11 2020 00:23:00 GMT+0900 (GMT+09:00),0,wake,1020,Sun Apr 12 2020 00:20:00 GMT+0900 (GMT+09:00)
383,fitbit,Sat Apr 11 2020 00:40:00 GMT+0900 (GMT+09:00),0,deep,300,Sun Apr 12 2020 00:20:00 GMT+0900 (GMT+09:00)
384,fitbit,Sat Apr 11 2020 00:45:00 GMT+0900 (GMT+09:00),0,light,90,Sun Apr 12 2020 00:20:00 GMT+0900 (GMT+09:00)
385,fitbit,Sat Apr 11 2020 00:46:30 GMT+0900 (GMT+09:00),0,deep,1650,Sun Apr 12 2020 00:20:00 GMT+0900 (GMT+09:00)
386,fitbit,Sat Apr 11 2020 01:14:00 GMT+0900 (GMT+09:00),0,light,900,Sun Apr 12 2020 00:20:00 GMT+0900 (GMT+09:00)
387,fitbit,Sat Apr 11 2020 01:29:00 GMT+0900 (GMT+09:00),0,deep,1740,Sun Apr 12 2020 00:20:00 GMT+0900 (GMT+09:00)
388,fitbit,Sat Apr 11 2020 01:58:00 GMT+0900 (GMT+09:00),0,light,4260,Sun Apr 12 2020 00:20:00 GMT+0900 (GMT+09:00)
389,fitbit,Sat Apr 11 2020 03:09:00 GMT+0900 (GMT+09:00),0,rem,1230,Sun Apr 12 2020 00:20:00 GMT+0900 (GMT+09:00)
390,fitbit,Sat Apr 11 2020 03:29:30 GMT+0900 (GMT+09:00),0,light,2400,Sun Apr 12 2020 00:20:00 GMT+0900 (GMT+09:00)
391,fitbit,Sat Apr 11 2020 04:09:30 GMT+0900 (GMT+09:00),0,deep,1560,Sun Apr 12 2020 00:20:00 GMT+0900 (GMT+09:00)
392,fitbit,Sat Apr 11 2020 04:35:30 GMT+0900 (GMT+09:00),0,light,270,Sun Apr 12 2020 00:20:00 GMT+0900 (GMT+09:00)
393,fitbit,Sat Apr 11 2020 04:40:00 GMT+0900 (GMT+09:00),0,rem,1170,Sun Apr 12 2020 00:20:00 GMT+0900 (GMT+09:00)
394,fitbit,Sat Apr 11 2020 04:59:30 GMT+0900 (GMT+09:00),0,light,5100,Sun Apr 12 2020 00:20:00 GMT+0900 (GMT+09:00)
395,fitbit,Sat Apr 11 2020 06:24:30 GMT+0900 (GMT+09:00),0,rem,2160,Sun Apr 12 2020 00:20:00 GMT+0900 (GMT+09:00)
396,fitbit,Sat Apr 11 2020 07:00:30 GMT+0900 (GMT+09:00),0,light,2310,Sun Apr 12 2020 00:20:00 GMT+0900 (GMT+09:00)
397,fitbit,Sat Apr 11 2020 07:39:00 GMT+0900 (GMT+09:00),0,deep,330,Sun Apr 12 2020 00:20:00 GMT+0900 (GMT+09:00)
398,fitbit,Sat Apr 11 2020 07:44:30 GMT+0900 (GMT+09:00),0,light,30,Sun Apr 12 2020 00:20:00 GMT+0900 (GMT+09:00)
399,fitbit,Sat Apr 11 2020 07:45:00 GMT+0900 (GMT+09:00),0,wake,300,Sun Apr 12 2020 00:20:00 GMT+0900 (GMT+09:00)
400,fitbit,Sat Apr 11 2020 07:50:00 GMT+0900 (GMT+09:00),0,light,930,Sun Apr 12 2020 00:20:00 GMT+0900 (GMT+09:00)
401,fitbit,Sat Apr 11 2020 08:05:30 GMT+0900 (GMT+09:00),0,wake,750,Sun Apr 12 2020 00:20:00 GMT+0900 (GMT+09:00)
402,fitbit,Sat Apr 11 2020 08:18:00 GMT+0900 (GMT+09:00),0,light,270,Sun Apr 12 2020 00:20:00 GMT+0900 (GMT+09:00)
403,fitbit,Sun Apr 12 2020 00:46:30 GMT+0900 (GMT+09:00),0,wake,390,Mon Apr 13 2020 00:20:00 GMT+0900 (GMT+09:00)
404,fitbit,Sun Apr 12 2020 00:53:00 GMT+0900 (GMT+09:00),0,light,30,Mon Apr 13 2020 00:20:00 GMT+0900 (GMT+09:00)
405,fitbit,Sun Apr 12 2020 00:53:30 GMT+0900 (GMT+09:00),0,deep,2940,Mon Apr 13 2020 00:20:00 GMT+0900 (GMT+09:00)
406,fitbit,Sun Apr 12 2020 01:42:30 GMT+0900 (GMT+09:00),0,light,270,Mon Apr 13 2020 00:20:00 GMT+0900 (GMT+09:00)
407,fitbit,Sun Apr 12 2020 01:47:00 GMT+0900 (GMT+09:00),0,rem,1530,Mon Apr 13 2020 00:20:00 GMT+0900 (GMT+09:00)
408,fitbit,Sun Apr 12 2020 02:12:30 GMT+0900 (GMT+09:00),0,light,4830,Mon Apr 13 2020 00:20:00 GMT+0900 (GMT+09:00)
409,fitbit,Sun Apr 12 2020 03:33:00 GMT+0900 (GMT+09:00),0,deep,480,Mon Apr 13 2020 00:20:00 GMT+0900 (GMT+09:00)
410,fitbit,Sun Apr 12 2020 03:41:00 GMT+0900 (GMT+09:00),0,light,1530,Mon Apr 13 2020 00:20:00 GMT+0900 (GMT+09:00)
411,fitbit,Sun Apr 12 2020 04:06:30 GMT+0900 (GMT+09:00),0,rem,1110,Mon Apr 13 2020 00:20:00 GMT+0900 (GMT+09:00)
412,fitbit,Sun Apr 12 2020 04:25:00 GMT+0900 (GMT+09:00),0,light,2760,Mon Apr 13 2020 00:20:00 GMT+0900 (GMT+09:00)
413,fitbit,Sun Apr 12 2020 05:11:00 GMT+0900 (GMT+09:00),0,rem,2520,Mon Apr 13 2020 00:20:00 GMT+0900 (GMT+09:00)
414,fitbit,Sun Apr 12 2020 05:53:00 GMT+0900 (GMT+09:00),0,light,3060,Mon Apr 13 2020 00:20:00 GMT+0900 (GMT+09:00)
415,fitbit,Sun Apr 12 2020 06:44:00 GMT+0900 (GMT+09:00),0,rem,840,Mon Apr 13 2020 00:20:00 GMT+0900 (GMT+09:00)
416,fitbit,Sun Apr 12 2020 06:58:00 GMT+0900 (GMT+09:00),0,light,450,Mon Apr 13 2020 00:20:00 GMT+0900 (GMT+09:00)
417,fitbit,Sun Apr 12 2020 07:05:30 GMT+0900 (GMT+09:00),0,wake,270,Mon Apr 13 2020 00:20:00 GMT+0900 (GMT+09:00)
418,fitbit,Sun Apr 12 2020 07:10:00 GMT+0900 (GMT+09:00),0,light,270,Mon Apr 13 2020 00:20:00 GMT+0900 (GMT+09:00)
419,fitbit,Sun Apr 12 2020 07:14:30 GMT+0900 (GMT+09:00),0,wake,510,Mon Apr 13 2020 00:20:00 GMT+0900 (GMT+09:00)
420,fitbit,Sun Apr 12 2020 07:23:00 GMT+0900 (GMT+09:00),0,light,720,Mon Apr 13 2020 00:20:00 GMT+0900 (GMT+09:00)
421,fitbit,Sun Apr 12 2020 07:35:00 GMT+0900 (GMT+09:00),0,wake,360,Mon Apr 13 2020 00:20:00 GMT+0900 (GMT+09:00)
422,fitbit,Sun Apr 12 2020 07:41:00 GMT+0900 (GMT+09:00),0,light,3150,Mon Apr 13 2020 00:20:00 GMT+0900 (GMT+09:00)
423,fitbit,Sun Apr 12 2020 08:33:30 GMT+0900 (GMT+09:00),0,wake,360,Mon Apr 13 2020 00:20:00 GMT+0900 (GMT+09:00)
424,fitbit,Mon Apr 13 2020 00:08:30 GMT+0900 (GMT+09:00),0,wake,1110,Tue Apr 14 2020 00:20:00 GMT+0900 (GMT+09:00)
425,fitbit,Mon Apr 13 2020 00:27:00 GMT+0900 (GMT+09:00),0,light,780,Tue Apr 14 2020 00:20:00 GMT+0900 (GMT+09:00)
426,fitbit,Mon Apr 13 2020 00:40:00 GMT+0900 (GMT+09:00),0,deep,1920,Tue Apr 14 2020 00:20:00 GMT+0900 (GMT+09:00)
427,fitbit,Mon Apr 13 2020 01:12:00 GMT+0900 (GMT+09:00),0,light,450,Tue Apr 14 2020 00:20:00 GMT+0900 (GMT+09:00)
428,fitbit,Mon Apr 13 2020 01:19:30 GMT+0900 (GMT+09:00),0,rem,360,Tue Apr 14 2020 00:20:00 GMT+0900 (GMT+09:00)
429,fitbit,Mon Apr 13 2020 01:25:30 GMT+0900 (GMT+09:00),0,light,1680,Tue Apr 14 2020 00:20:00 GMT+0900 (GMT+09:00)
430,fitbit,Mon Apr 13 2020 01:53:30 GMT+0900 (GMT+09:00),0,wake,1020,Tue Apr 14 2020 00:20:00 GMT+0900 (GMT+09:00)
431,fitbit,Mon Apr 13 2020 02:10:30 GMT+0900 (GMT+09:00),0,light,1800,Tue Apr 14 2020 00:20:00 GMT+0900 (GMT+09:00)
432,fitbit,Mon Apr 13 2020 02:40:30 GMT+0900 (GMT+09:00),0,deep,270,Tue Apr 14 2020 00:20:00 GMT+0900 (GMT+09:00)
433,fitbit,Mon Apr 13 2020 02:45:00 GMT+0900 (GMT+09:00),0,light,750,Tue Apr 14 2020 00:20:00 GMT+0900 (GMT+09:00)
434,fitbit,Mon Apr 13 2020 02:57:30 GMT+0900 (GMT+09:00),0,deep,1350,Tue Apr 14 2020 00:20:00 GMT+0900 (GMT+09:00)
435,fitbit,Mon Apr 13 2020 03:20:00 GMT+0900 (GMT+09:00),0,light,150,Tue Apr 14 2020 00:20:00 GMT+0900 (GMT+09:00)
436,fitbit,Mon Apr 13 2020 03:22:30 GMT+0900 (GMT+09:00),0,rem,1800,Tue Apr 14 2020 00:20:00 GMT+0900 (GMT+09:00)
437,fitbit,Mon Apr 13 2020 03:52:30 GMT+0900 (GMT+09:00),0,light,3930,Tue Apr 14 2020 00:20:00 GMT+0900 (GMT+09:00)
438,fitbit,Mon Apr 13 2020 04:58:00 GMT+0900 (GMT+09:00),0,rem,2280,Tue Apr 14 2020 00:20:00 GMT+0900 (GMT+09:00)
439,fitbit,Mon Apr 13 2020 05:36:00 GMT+0900 (GMT+09:00),0,light,1200,Tue Apr 14 2020 00:20:00 GMT+0900 (GMT+09:00)
440,fitbit,Mon Apr 13 2020 05:56:00 GMT+0900 (GMT+09:00),0,rem,960,Tue Apr 14 2020 00:20:00 GMT+0900 (GMT+09:00)
441,fitbit,Mon Apr 13 2020 06:12:00 GMT+0900 (GMT+09:00),0,light,750,Tue Apr 14 2020 00:20:00 GMT+0900 (GMT+09:00)
442,fitbit,Mon Apr 13 2020 06:24:30 GMT+0900 (GMT+09:00),0,rem,1500,Tue Apr 14 2020 00:20:00 GMT+0900 (GMT+09:00)
443,fitbit,Mon Apr 13 2020 06:49:30 GMT+0900 (GMT+09:00),0,light,1560,Tue Apr 14 2020 00:20:00 GMT+0900 (GMT+09:00)
444,fitbit,Mon Apr 13 2020 07:15:30 GMT+0900 (GMT+09:00),0,rem,900,Tue Apr 14 2020 00:20:00 GMT+0900 (GMT+09:00)
445,fitbit,Mon Apr 13 2020 07:30:30 GMT+0900 (GMT+09:00),0,light,1020,Tue Apr 14 2020 00:20:00 GMT+0900 (GMT+09:00)
446,fitbit,Mon Apr 13 2020 07:47:30 GMT+0900 (GMT+09:00),0,rem,360,Tue Apr 14 2020 00:20:00 GMT+0900 (GMT+09:00)
447,fitbit,Mon Apr 13 2020 07:53:30 GMT+0900 (GMT+09:00),0,light,2490,Tue Apr 14 2020 00:20:00 GMT+0900 (GMT+09:00)
448,fitbit,Tue Apr 14 2020 00:57:30 GMT+0900 (GMT+09:00),0,wake,780,Wed Apr 15 2020 00:20:00 GMT+0900 (GMT+09:00)
449,fitbit,Tue Apr 14 2020 01:10:30 GMT+0900 (GMT+09:00),0,light,1200,Wed Apr 15 2020 00:20:00 GMT+0900 (GMT+09:00)
450,fitbit,Tue Apr 14 2020 01:30:30 GMT+0900 (GMT+09:00),0,deep,1470,Wed Apr 15 2020 00:20:00 GMT+0900 (GMT+09:00)
451,fitbit,Tue Apr 14 2020 01:55:00 GMT+0900 (GMT+09:00),0,light,780,Wed Apr 15 2020 00:20:00 GMT+0900 (GMT+09:00)
452,fitbit,Tue Apr 14 2020 02:08:00 GMT+0900 (GMT+09:00),0,rem,300,Wed Apr 15 2020 00:20:00 GMT+0900 (GMT+09:00)
453,fitbit,Tue Apr 14 2020 02:13:00 GMT+0900 (GMT+09:00),0,light,3090,Wed Apr 15 2020 00:20:00 GMT+0900 (GMT+09:00)
454,fitbit,Tue Apr 14 2020 03:04:30 GMT+0900 (GMT+09:00),0,deep,720,Wed Apr 15 2020 00:20:00 GMT+0900 (GMT+09:00)
455,fitbit,Tue Apr 14 2020 03:16:30 GMT+0900 (GMT+09:00),0,light,630,Wed Apr 15 2020 00:20:00 GMT+0900 (GMT+09:00)
456,fitbit,Tue Apr 14 2020 03:27:00 GMT+0900 (GMT+09:00),0,rem,1530,Wed Apr 15 2020 00:20:00 GMT+0900 (GMT+09:00)
457,fitbit,Tue Apr 14 2020 03:52:30 GMT+0900 (GMT+09:00),0,light,3270,Wed Apr 15 2020 00:20:00 GMT+0900 (GMT+09:00)
458,fitbit,Tue Apr 14 2020 04:47:00 GMT+0900 (GMT+09:00),0,rem,1230,Wed Apr 15 2020 00:20:00 GMT+0900 (GMT+09:00)
459,fitbit,Tue Apr 14 2020 05:07:30 GMT+0900 (GMT+09:00),0,light,2910,Wed Apr 15 2020 00:20:00 GMT+0900 (GMT+09:00)
460,fitbit,Tue Apr 14 2020 05:56:00 GMT+0900 (GMT+09:00),0,rem,870,Wed Apr 15 2020 00:20:00 GMT+0900 (GMT+09:00)
461,fitbit,Tue Apr 14 2020 06:10:30 GMT+0900 (GMT+09:00),0,light,2070,Wed Apr 15 2020 00:20:00 GMT+0900 (GMT+09:00)
462,fitbit,Tue Apr 14 2020 06:45:00 GMT+0900 (GMT+09:00),0,rem,300,Wed Apr 15 2020 00:20:00 GMT+0900 (GMT+09:00)
463,fitbit,Tue Apr 14 2020 06:50:00 GMT+0900 (GMT+09:00),0,deep,690,Wed Apr 15 2020 00:20:00 GMT+0900 (GMT+09:00)
464,fitbit,Tue Apr 14 2020 07:01:30 GMT+0900 (GMT+09:00),0,light,570,Wed Apr 15 2020 00:20:00 GMT+0900 (GMT+09:00)
465,fitbit,Tue Apr 14 2020 07:11:00 GMT+0900 (GMT+09:00),0,wake,300,Wed Apr 15 2020 00:20:00 GMT+0900 (GMT+09:00)
466,fitbit,Tue Apr 14 2020 07:16:00 GMT+0900 (GMT+09:00),0,light,1890,Wed Apr 15 2020 00:20:00 GMT+0900 (GMT+09:00)
467,fitbit,Thu Apr 16 2020 01:18:30 GMT+0900 (GMT+09:00),0,wake,480,Fri Apr 17 2020 00:20:00 GMT+0900 (GMT+09:00)
468,fitbit,Thu Apr 16 2020 01:26:30 GMT+0900 (GMT+09:00),0,light,450,Fri Apr 17 2020 00:20:00 GMT+0900 (GMT+09:00)
469,fitbit,Thu Apr 16 2020 01:34:00 GMT+0900 (GMT+09:00),0,wake,510,Fri Apr 17 2020 00:20:00 GMT+0900 (GMT+09:00)
470,fitbit,Thu Apr 16 2020 01:42:30 GMT+0900 (GMT+09:00),0,light,4470,Fri Apr 17 2020 00:20:00 GMT+0900 (GMT+09:00)
471,fitbit,Thu Apr 16 2020 02:57:00 GMT+0900 (GMT+09:00),0,deep,3030,Fri Apr 17 2020 00:20:00 GMT+0900 (GMT+09:00)
472,fitbit,Thu Apr 16 2020 03:47:30 GMT+0900 (GMT+09:00),0,light,5340,Fri Apr 17 2020 00:20:00 GMT+0900 (GMT+09:00)
473,fitbit,Thu Apr 16 2020 05:16:30 GMT+0900 (GMT+09:00),0,rem,3210,Fri Apr 17 2020 00:20:00 GMT+0900 (GMT+09:00)
474,fitbit,Thu Apr 16 2020 06:10:00 GMT+0900 (GMT+09:00),0,light,2220,Fri Apr 17 2020 00:20:00 GMT+0900 (GMT+09:00)
475,fitbit,Thu Apr 16 2020 06:47:00 GMT+0900 (GMT+09:00),0,rem,300,Fri Apr 17 2020 00:20:00 GMT+0900 (GMT+09:00)
476,fitbit,Thu Apr 16 2020 06:52:00 GMT+0900 (GMT+09:00),0,light,330,Fri Apr 17 2020 00:20:00 GMT+0900 (GMT+09:00)
477,fitbit,Thu Apr 16 2020 06:57:30 GMT+0900 (GMT+09:00),0,rem,810,Fri Apr 17 2020 00:20:00 GMT+0900 (GMT+09:00)
478,fitbit,Thu Apr 16 2020 07:11:00 GMT+0900 (GMT+09:00),0,light,840,Fri Apr 17 2020 00:20:00 GMT+0900 (GMT+09:00)
479,fitbit,Thu Apr 16 2020 07:25:00 GMT+0900 (GMT+09:00),0,wake,540,Fri Apr 17 2020 00:20:00 GMT+0900 (GMT+09:00)
480,fitbit,Thu Apr 16 2020 07:34:00 GMT+0900 (GMT+09:00),0,light,3120,Fri Apr 17 2020 00:20:00 GMT+0900 (GMT+09:00)
481,fitbit,Thu Apr 16 2020 08:26:00 GMT+0900 (GMT+09:00),0,wake,240,Fri Apr 17 2020 00:20:00 GMT+0900 (GMT+09:00)
482,fitbit,Thu Apr 16 2020 08:30:00 GMT+0900 (GMT+09:00),0,light,120,Fri Apr 17 2020 00:20:00 GMT+0900 (GMT+09:00)
483,fitbit,Fri Apr 17 2020 00:33:00 GMT+0900 (GMT+09:00),0,wake,270,Sat Apr 18 2020 00:20:00 GMT+0900 (GMT+09:00)
484,fitbit,Fri Apr 17 2020 00:37:30 GMT+0900 (GMT+09:00),0,light,2430,Sat Apr 18 2020 00:20:00 GMT+0900 (GMT+09:00)
485,fitbit,Fri Apr 17 2020 01:18:00 GMT+0900 (GMT+09:00),0,deep,690,Sat Apr 18 2020 00:20:00 GMT+0900 (GMT+09:00)
486,fitbit,Fri Apr 17 2020 01:29:30 GMT+0900 (GMT+09:00),0,light,390,Sat Apr 18 2020 00:20:00 GMT+0900 (GMT+09:00)
487,fitbit,Fri Apr 17 2020 01:36:00 GMT+0900 (GMT+09:00),0,rem,690,Sat Apr 18 2020 00:20:00 GMT+0900 (GMT+09:00)
488,fitbit,Fri Apr 17 2020 01:47:30 GMT+0900 (GMT+09:00),0,light,2130,Sat Apr 18 2020 00:20:00 GMT+0900 (GMT+09:00)
489,fitbit,Fri Apr 17 2020 02:23:00 GMT+0900 (GMT+09:00),0,deep,1320,Sat Apr 18 2020 00:20:00 GMT+0900 (GMT+09:00)
490,fitbit,Fri Apr 17 2020 02:45:00 GMT+0900 (GMT+09:00),0,light,390,Sat Apr 18 2020 00:20:00 GMT+0900 (GMT+09:00)
491,fitbit,Fri Apr 17 2020 02:51:30 GMT+0900 (GMT+09:00),0,rem,750,Sat Apr 18 2020 00:20:00 GMT+0900 (GMT+09:00)
492,fitbit,Fri Apr 17 2020 03:04:00 GMT+0900 (GMT+09:00),0,light,780,Sat Apr 18 2020 00:20:00 GMT+0900 (GMT+09:00)
493,fitbit,Fri Apr 17 2020 03:17:00 GMT+0900 (GMT+09:00),0,rem,2400,Sat Apr 18 2020 00:20:00 GMT+0900 (GMT+09:00)
494,fitbit,Fri Apr 17 2020 03:57:00 GMT+0900 (GMT+09:00),0,light,390,Sat Apr 18 2020 00:20:00 GMT+0900 (GMT+09:00)
495,fitbit,Fri Apr 17 2020 04:03:30 GMT+0900 (GMT+09:00),0,wake,330,Sat Apr 18 2020 00:20:00 GMT+0900 (GMT+09:00)
496,fitbit,Fri Apr 17 2020 04:09:00 GMT+0900 (GMT+09:00),0,light,150,Sat Apr 18 2020 00:20:00 GMT+0900 (GMT+09:00)
497,fitbit,Fri Apr 17 2020 04:11:30 GMT+0900 (GMT+09:00),0,wake,630,Sat Apr 18 2020 00:20:00 GMT+0900 (GMT+09:00)
498,fitbit,Fri Apr 17 2020 04:22:00 GMT+0900 (GMT+09:00),0,light,1740,Sat Apr 18 2020 00:20:00 GMT+0900 (GMT+09:00)
499,fitbit,Fri Apr 17 2020 04:51:00 GMT+0900 (GMT+09:00),0,deep,300,Sat Apr 18 2020 00:20:00 GMT+0900 (GMT+09:00)
500,fitbit,Fri Apr 17 2020 04:56:00 GMT+0900 (GMT+09:00),0,light,1110,Sat Apr 18 2020 00:20:00 GMT+0900 (GMT+09:00)
501,fitbit,Fri Apr 17 2020 05:14:30 GMT+0900 (GMT+09:00),0,wake,330,Sat Apr 18 2020 00:20:00 GMT+0900 (GMT+09:00)
502,fitbit,Fri Apr 17 2020 05:20:00 GMT+0900 (GMT+09:00),0,light,120,Sat Apr 18 2020 00:20:00 GMT+0900 (GMT+09:00)
503,fitbit,Fri Apr 17 2020 05:22:00 GMT+0900 (GMT+09:00),0,rem,1800,Sat Apr 18 2020 00:20:00 GMT+0900 (GMT+09:00)
504,fitbit,Fri Apr 17 2020 05:52:00 GMT+0900 (GMT+09:00),0,light,4980,Sat Apr 18 2020 00:20:00 GMT+0900 (GMT+09:00)
505,fitbit,Fri Apr 17 2020 07:15:00 GMT+0900 (GMT+09:00),0,wake,1980,Sat Apr 18 2020 00:20:00 GMT+0900 (GMT+09:00)
506,fitbit,Fri Apr 17 2020 23:38:00 GMT+0900 (GMT+09:00),0,wake,360,Sun Apr 19 2020 00:20:00 GMT+0900 (GMT+09:00)
507,fitbit,Fri Apr 17 2020 23:44:00 GMT+0900 (GMT+09:00),0,light,30,Sun Apr 19 2020 00:20:00 GMT+0900 (GMT+09:00)
508,fitbit,Fri Apr 17 2020 23:44:30 GMT+0900 (GMT+09:00),0,deep,2910,Sun Apr 19 2020 00:20:00 GMT+0900 (GMT+09:00)
509,fitbit,Sat Apr 18 2020 00:33:00 GMT+0900 (GMT+09:00),0,light,180,Sun Apr 19 2020 00:20:00 GMT+0900 (GMT+09:00)
510,fitbit,Sat Apr 18 2020 00:36:00 GMT+0900 (GMT+09:00),0,wake,690,Sun Apr 19 2020 00:20:00 GMT+0900 (GMT+09:00)
511,fitbit,Sat Apr 18 2020 00:47:30 GMT+0900 (GMT+09:00),0,light,1560,Sun Apr 19 2020 00:20:00 GMT+0900 (GMT+09:00)
512,fitbit,Sat Apr 18 2020 01:13:30 GMT+0900 (GMT+09:00),0,deep,1320,Sun Apr 19 2020 00:20:00 GMT+0900 (GMT+09:00)
513,fitbit,Sat Apr 18 2020 01:35:30 GMT+0900 (GMT+09:00),0,light,1860,Sun Apr 19 2020 00:20:00 GMT+0900 (GMT+09:00)
514,fitbit,Sat Apr 18 2020 02:06:30 GMT+0900 (GMT+09:00),0,deep,1740,Sun Apr 19 2020 00:20:00 GMT+0900 (GMT+09:00)
515,fitbit,Sat Apr 18 2020 02:35:30 GMT+0900 (GMT+09:00),0,light,1710,Sun Apr 19 2020 00:20:00 GMT+0900 (GMT+09:00)
516,fitbit,Sat Apr 18 2020 03:04:00 GMT+0900 (GMT+09:00),0,rem,330,Sun Apr 19 2020 00:20:00 GMT+0900 (GMT+09:00)
517,fitbit,Sat Apr 18 2020 03:09:30 GMT+0900 (GMT+09:00),0,light,1350,Sun Apr 19 2020 00:20:00 GMT+0900 (GMT+09:00)
518,fitbit,Sat Apr 18 2020 03:32:00 GMT+0900 (GMT+09:00),0,deep,1800,Sun Apr 19 2020 00:20:00 GMT+0900 (GMT+09:00)
519,fitbit,Sat Apr 18 2020 04:02:00 GMT+0900 (GMT+09:00),0,light,1980,Sun Apr 19 2020 00:20:00 GMT+0900 (GMT+09:00)
520,fitbit,Sat Apr 18 2020 04:35:00 GMT+0900 (GMT+09:00),0,deep,390,Sun Apr 19 2020 00:20:00 GMT+0900 (GMT+09:00)
521,fitbit,Sat Apr 18 2020 04:41:30 GMT+0900 (GMT+09:00),0,light,90,Sun Apr 19 2020 00:20:00 GMT+0900 (GMT+09:00)
522,fitbit,Sat Apr 18 2020 04:43:00 GMT+0900 (GMT+09:00),0,wake,300,Sun Apr 19 2020 00:20:00 GMT+0900 (GMT+09:00)
523,fitbit,Sat Apr 18 2020 04:48:00 GMT+0900 (GMT+09:00),0,light,2160,Sun Apr 19 2020 00:20:00 GMT+0900 (GMT+09:00)
524,fitbit,Sat Apr 18 2020 05:24:00 GMT+0900 (GMT+09:00),0,rem,1350,Sun Apr 19 2020 00:20:00 GMT+0900 (GMT+09:00)
525,fitbit,Sat Apr 18 2020 05:46:30 GMT+0900 (GMT+09:00),0,light,2670,Sun Apr 19 2020 00:20:00 GMT+0900 (GMT+09:00)
526,fitbit,Sat Apr 18 2020 06:31:00 GMT+0900 (GMT+09:00),0,rem,1830,Sun Apr 19 2020 00:20:00 GMT+0900 (GMT+09:00)
527,fitbit,Sat Apr 18 2020 07:01:30 GMT+0900 (GMT+09:00),0,light,840,Sun Apr 19 2020 00:20:00 GMT+0900 (GMT+09:00)
528,fitbit,Sat Apr 18 2020 07:15:30 GMT+0900 (GMT+09:00),0,wake,270,Sun Apr 19 2020 00:20:00 GMT+0900 (GMT+09:00)
529,fitbit,Sat Apr 18 2020 07:20:00 GMT+0900 (GMT+09:00),0,light,870,Sun Apr 19 2020 00:20:00 GMT+0900 (GMT+09:00)
530,fitbit,Sat Apr 18 2020 07:34:30 GMT+0900 (GMT+09:00),0,wake,330,Sun Apr 19 2020 00:20:00 GMT+0900 (GMT+09:00)
531,fitbit,Sat Apr 18 2020 07:40:00 GMT+0900 (GMT+09:00),0,light,480,Sun Apr 19 2020 00:20:00 GMT+0900 (GMT+09:00)
532,fitbit,Sat Apr 18 2020 07:48:00 GMT+0900 (GMT+09:00),0,wake,450,Sun Apr 19 2020 00:20:00 GMT+0900 (GMT+09:00)
533,fitbit,Sat Apr 18 2020 07:55:30 GMT+0900 (GMT+09:00),0,light,150,Sun Apr 19 2020 00:20:00 GMT+0900 (GMT+09:00)
534,fitbit,Sat Apr 18 2020 07:58:00 GMT+0900 (GMT+09:00),0,wake,1500,Sun Apr 19 2020 00:20:00 GMT+0900 (GMT+09:00)
535,fitbit,Sun Apr 19 2020 00:05:00 GMT+0900 (GMT+09:00),0,wake,420,Mon Apr 20 2020 00:20:00 GMT+0900 (GMT+09:00)
536,fitbit,Sun Apr 19 2020 00:12:00 GMT+0900 (GMT+09:00),0,light,330,Mon Apr 20 2020 00:20:00 GMT+0900 (GMT+09:00)
537,fitbit,Sun Apr 19 2020 00:17:30 GMT+0900 (GMT+09:00),0,wake,480,Mon Apr 20 2020 00:20:00 GMT+0900 (GMT+09:00)
538,fitbit,Sun Apr 19 2020 00:25:30 GMT+0900 (GMT+09:00),0,light,570,Mon Apr 20 2020 00:20:00 GMT+0900 (GMT+09:00)
539,fitbit,Sun Apr 19 2020 00:35:00 GMT+0900 (GMT+09:00),0,deep,420,Mon Apr 20 2020 00:20:00 GMT+0900 (GMT+09:00)
540,fitbit,Sun Apr 19 2020 00:42:00 GMT+0900 (GMT+09:00),0,light,390,Mon Apr 20 2020 00:20:00 GMT+0900 (GMT+09:00)
541,fitbit,Sun Apr 19 2020 00:48:30 GMT+0900 (GMT+09:00),0,deep,360,Mon Apr 20 2020 00:20:00 GMT+0900 (GMT+09:00)
542,fitbit,Sun Apr 19 2020 00:54:30 GMT+0900 (GMT+09:00),0,light,2190,Mon Apr 20 2020 00:20:00 GMT+0900 (GMT+09:00)
543,fitbit,Sun Apr 19 2020 01:31:00 GMT+0900 (GMT+09:00),0,deep,270,Mon Apr 20 2020 00:20:00 GMT+0900 (GMT+09:00)
544,fitbit,Sun Apr 19 2020 01:35:30 GMT+0900 (GMT+09:00),0,light,420,Mon Apr 20 2020 00:20:00 GMT+0900 (GMT+09:00)
545,fitbit,Sun Apr 19 2020 01:42:30 GMT+0900 (GMT+09:00),0,wake,240,Mon Apr 20 2020 00:20:00 GMT+0900 (GMT+09:00)
546,fitbit,Sun Apr 19 2020 01:46:30 GMT+0900 (GMT+09:00),0,light,330,Mon Apr 20 2020 00:20:00 GMT+0900 (GMT+09:00)
547,fitbit,Sun Apr 19 2020 01:52:00 GMT+0900 (GMT+09:00),0,deep,1470,Mon Apr 20 2020 00:20:00 GMT+0900 (GMT+09:00)
548,fitbit,Sun Apr 19 2020 02:16:30 GMT+0900 (GMT+09:00),0,light,1980,Mon Apr 20 2020 00:20:00 GMT+0900 (GMT+09:00)
549,fitbit,Sun Apr 19 2020 02:49:30 GMT+0900 (GMT+09:00),0,deep,990,Mon Apr 20 2020 00:20:00 GMT+0900 (GMT+09:00)
550,fitbit,Sun Apr 19 2020 03:06:00 GMT+0900 (GMT+09:00),0,light,480,Mon Apr 20 2020 00:20:00 GMT+0900 (GMT+09:00)
551,fitbit,Sun Apr 19 2020 03:14:00 GMT+0900 (GMT+09:00),0,deep,330,Mon Apr 20 2020 00:20:00 GMT+0900 (GMT+09:00)
552,fitbit,Sun Apr 19 2020 03:19:30 GMT+0900 (GMT+09:00),0,light,2010,Mon Apr 20 2020 00:20:00 GMT+0900 (GMT+09:00)
553,fitbit,Sun Apr 19 2020 03:53:00 GMT+0900 (GMT+09:00),0,wake,420,Mon Apr 20 2020 00:20:00 GMT+0900 (GMT+09:00)
554,fitbit,Sun Apr 19 2020 04:00:00 GMT+0900 (GMT+09:00),0,light,1830,Mon Apr 20 2020 00:20:00 GMT+0900 (GMT+09:00)
555,fitbit,Sun Apr 19 2020 04:30:30 GMT+0900 (GMT+09:00),0,deep,1080,Mon Apr 20 2020 00:20:00 GMT+0900 (GMT+09:00)
556,fitbit,Sun Apr 19 2020 04:48:30 GMT+0900 (GMT+09:00),0,light,270,Mon Apr 20 2020 00:20:00 GMT+0900 (GMT+09:00)
557,fitbit,Sun Apr 19 2020 04:53:00 GMT+0900 (GMT+09:00),0,rem,510,Mon Apr 20 2020 00:20:00 GMT+0900 (GMT+09:00)
558,fitbit,Sun Apr 19 2020 05:01:30 GMT+0900 (GMT+09:00),0,light,450,Mon Apr 20 2020 00:20:00 GMT+0900 (GMT+09:00)
559,fitbit,Sun Apr 19 2020 05:09:00 GMT+0900 (GMT+09:00),0,wake,270,Mon Apr 20 2020 00:20:00 GMT+0900 (GMT+09:00)
560,fitbit,Sun Apr 19 2020 05:13:30 GMT+0900 (GMT+09:00),0,rem,1500,Mon Apr 20 2020 00:20:00 GMT+0900 (GMT+09:00)
561,fitbit,Sun Apr 19 2020 05:38:30 GMT+0900 (GMT+09:00),0,light,750,Mon Apr 20 2020 00:20:00 GMT+0900 (GMT+09:00)
562,fitbit,Sun Apr 19 2020 05:51:00 GMT+0900 (GMT+09:00),0,rem,390,Mon Apr 20 2020 00:20:00 GMT+0900 (GMT+09:00)
563,fitbit,Sun Apr 19 2020 05:57:30 GMT+0900 (GMT+09:00),0,light,2940,Mon Apr 20 2020 00:20:00 GMT+0900 (GMT+09:00)
564,fitbit,Sun Apr 19 2020 06:46:30 GMT+0900 (GMT+09:00),0,rem,300,Mon Apr 20 2020 00:20:00 GMT+0900 (GMT+09:00)
565,fitbit,Sun Apr 19 2020 06:51:30 GMT+0900 (GMT+09:00),0,light,750,Mon Apr 20 2020 00:20:00 GMT+0900 (GMT+09:00)
566,fitbit,Sun Apr 19 2020 07:04:00 GMT+0900 (GMT+09:00),0,rem,570,Mon Apr 20 2020 00:20:00 GMT+0900 (GMT+09:00)
567,fitbit,Sun Apr 19 2020 07:13:30 GMT+0900 (GMT+09:00),0,wake,300,Mon Apr 20 2020 00:20:00 GMT+0900 (GMT+09:00)
568,fitbit,Mon Apr 20 2020 00:53:00 GMT+0900 (GMT+09:00),0,wake,30,Tue Apr 21 2020 00:20:00 GMT+0900 (GMT+09:00)
569,fitbit,Mon Apr 20 2020 00:53:30 GMT+0900 (GMT+09:00),0,light,330,Tue Apr 21 2020 00:20:00 GMT+0900 (GMT+09:00)
570,fitbit,Mon Apr 20 2020 00:59:00 GMT+0900 (GMT+09:00),0,deep,2100,Tue Apr 21 2020 00:20:00 GMT+0900 (GMT+09:00)
571,fitbit,Mon Apr 20 2020 01:34:00 GMT+0900 (GMT+09:00),0,light,1470,Tue Apr 21 2020 00:20:00 GMT+0900 (GMT+09:00)
572,fitbit,Mon Apr 20 2020 01:58:30 GMT+0900 (GMT+09:00),0,deep,1530,Tue Apr 21 2020 00:20:00 GMT+0900 (GMT+09:00)
573,fitbit,Mon Apr 20 2020 02:24:00 GMT+0900 (GMT+09:00),0,light,510,Tue Apr 21 2020 00:20:00 GMT+0900 (GMT+09:00)
574,fitbit,Mon Apr 20 2020 02:32:30 GMT+0900 (GMT+09:00),0,rem,1470,Tue Apr 21 2020 00:20:00 GMT+0900 (GMT+09:00)
575,fitbit,Mon Apr 20 2020 02:57:00 GMT+0900 (GMT+09:00),0,light,840,Tue Apr 21 2020 00:20:00 GMT+0900 (GMT+09:00)
576,fitbit,Mon Apr 20 2020 03:11:00 GMT+0900 (GMT+09:00),0,rem,1380,Tue Apr 21 2020 00:20:00 GMT+0900 (GMT+09:00)
577,fitbit,Mon Apr 20 2020 03:34:00 GMT+0900 (GMT+09:00),0,light,3870,Tue Apr 21 2020 00:20:00 GMT+0900 (GMT+09:00)
578,fitbit,Mon Apr 20 2020 04:38:30 GMT+0900 (GMT+09:00),0,rem,270,Tue Apr 21 2020 00:20:00 GMT+0900 (GMT+09:00)
579,fitbit,Mon Apr 20 2020 04:43:00 GMT+0900 (GMT+09:00),0,light,2460,Tue Apr 21 2020 00:20:00 GMT+0900 (GMT+09:00)
580,fitbit,Mon Apr 20 2020 05:24:00 GMT+0900 (GMT+09:00),0,wake,570,Tue Apr 21 2020 00:20:00 GMT+0900 (GMT+09:00)
581,fitbit,Mon Apr 20 2020 05:33:30 GMT+0900 (GMT+09:00),0,light,270,Tue Apr 21 2020 00:20:00 GMT+0900 (GMT+09:00)
582,fitbit,Mon Apr 20 2020 05:38:00 GMT+0900 (GMT+09:00),0,wake,1260,Tue Apr 21 2020 00:20:00 GMT+0900 (GMT+09:00)
583,fitbit,Mon Apr 20 2020 05:59:00 GMT+0900 (GMT+09:00),0,light,1500,Tue Apr 21 2020 00:20:00 GMT+0900 (GMT+09:00)
584,fitbit,Mon Apr 20 2020 06:24:00 GMT+0900 (GMT+09:00),0,rem,360,Tue Apr 21 2020 00:20:00 GMT+0900 (GMT+09:00)
585,fitbit,Mon Apr 20 2020 06:30:00 GMT+0900 (GMT+09:00),0,light,540,Tue Apr 21 2020 00:20:00 GMT+0900 (GMT+09:00)
586,fitbit,Mon Apr 20 2020 06:39:00 GMT+0900 (GMT+09:00),0,rem,300,Tue Apr 21 2020 00:20:00 GMT+0900 (GMT+09:00)
587,fitbit,Mon Apr 20 2020 06:44:00 GMT+0900 (GMT+09:00),0,light,30,Tue Apr 21 2020 00:20:00 GMT+0900 (GMT+09:00)
588,fitbit,Mon Apr 20 2020 06:44:30 GMT+0900 (GMT+09:00),0,wake,720,Tue Apr 21 2020 00:20:00 GMT+0900 (GMT+09:00)
589,fitbit,Mon Apr 20 2020 06:56:30 GMT+0900 (GMT+09:00),0,light,3750,Tue Apr 21 2020 00:20:00 GMT+0900 (GMT+09:00)
590,fitbit,Mon Apr 20 2020 07:59:00 GMT+0900 (GMT+09:00),0,wake,270,Tue Apr 21 2020 00:20:00 GMT+0900 (GMT+09:00)
591,fitbit,Tue Apr 21 2020 01:37:00 GMT+0900 (GMT+09:00),0,light,540,Wed Apr 22 2020 00:20:00 GMT+0900 (GMT+09:00)
592,fitbit,Tue Apr 21 2020 01:46:00 GMT+0900 (GMT+09:00),0,wake,660,Wed Apr 22 2020 00:20:00 GMT+0900 (GMT+09:00)
593,fitbit,Tue Apr 21 2020 01:57:00 GMT+0900 (GMT+09:00),0,light,2610,Wed Apr 22 2020 00:20:00 GMT+0900 (GMT+09:00)
594,fitbit,Tue Apr 21 2020 02:40:30 GMT+0900 (GMT+09:00),0,rem,1800,Wed Apr 22 2020 00:20:00 GMT+0900 (GMT+09:00)
595,fitbit,Tue Apr 21 2020 03:10:30 GMT+0900 (GMT+09:00),0,light,420,Wed Apr 22 2020 00:20:00 GMT+0900 (GMT+09:00)
596,fitbit,Tue Apr 21 2020 03:17:30 GMT+0900 (GMT+09:00),0,deep,3270,Wed Apr 22 2020 00:20:00 GMT+0900 (GMT+09:00)
597,fitbit,Tue Apr 21 2020 04:12:00 GMT+0900 (GMT+09:00),0,light,1890,Wed Apr 22 2020 00:20:00 GMT+0900 (GMT+09:00)
598,fitbit,Tue Apr 21 2020 04:43:30 GMT+0900 (GMT+09:00),0,rem,1050,Wed Apr 22 2020 00:20:00 GMT+0900 (GMT+09:00)
599,fitbit,Tue Apr 21 2020 05:01:00 GMT+0900 (GMT+09:00),0,light,5490,Wed Apr 22 2020 00:20:00 GMT+0900 (GMT+09:00)
600,fitbit,Tue Apr 21 2020 06:32:30 GMT+0900 (GMT+09:00),0,rem,960,Wed Apr 22 2020 00:20:00 GMT+0900 (GMT+09:00)
601,fitbit,Tue Apr 21 2020 06:48:30 GMT+0900 (GMT+09:00),0,light,2190,Wed Apr 22 2020 00:20:00 GMT+0900 (GMT+09:00)
602,fitbit,Tue Apr 21 2020 07:25:00 GMT+0900 (GMT+09:00),0,wake,600,Wed Apr 22 2020 00:20:00 GMT+0900 (GMT+09:00)
603,fitbit,Tue Apr 21 2020 07:35:00 GMT+0900 (GMT+09:00),0,light,2880,Wed Apr 22 2020 00:20:00 GMT+0900 (GMT+09:00)
604,fitbit,Tue Apr 21 2020 08:23:00 GMT+0900 (GMT+09:00),0,rem,270,Wed Apr 22 2020 00:20:00 GMT+0900 (GMT+09:00)
605,fitbit,Tue Apr 21 2020 08:27:30 GMT+0900 (GMT+09:00),0,wake,330,Wed Apr 22 2020 00:20:00 GMT+0900 (GMT+09:00)
606,fitbit,Thu Apr 23 2020 00:55:00 GMT+0900 (GMT+09:00),0,wake,270,Fri Apr 24 2020 00:20:00 GMT+0900 (GMT+09:00)
607,fitbit,Thu Apr 23 2020 00:59:30 GMT+0900 (GMT+09:00),0,light,210,Fri Apr 24 2020 00:20:00 GMT+0900 (GMT+09:00)
608,fitbit,Thu Apr 23 2020 01:03:00 GMT+0900 (GMT+09:00),0,wake,810,Fri Apr 24 2020 00:20:00 GMT+0900 (GMT+09:00)
609,fitbit,Thu Apr 23 2020 01:16:30 GMT+0900 (GMT+09:00),0,light,420,Fri Apr 24 2020 00:20:00 GMT+0900 (GMT+09:00)
610,fitbit,Thu Apr 23 2020 01:23:30 GMT+0900 (GMT+09:00),0,deep,1020,Fri Apr 24 2020 00:20:00 GMT+0900 (GMT+09:00)
611,fitbit,Thu Apr 23 2020 01:40:30 GMT+0900 (GMT+09:00),0,light,690,Fri Apr 24 2020 00:20:00 GMT+0900 (GMT+09:00)
612,fitbit,Thu Apr 23 2020 01:52:00 GMT+0900 (GMT+09:00),0,rem,1770,Fri Apr 24 2020 00:20:00 GMT+0900 (GMT+09:00)
613,fitbit,Thu Apr 23 2020 02:21:30 GMT+0900 (GMT+09:00),0,light,180,Fri Apr 24 2020 00:20:00 GMT+0900 (GMT+09:00)
614,fitbit,Thu Apr 23 2020 02:24:30 GMT+0900 (GMT+09:00),0,deep,630,Fri Apr 24 2020 00:20:00 GMT+0900 (GMT+09:00)
615,fitbit,Thu Apr 23 2020 02:35:00 GMT+0900 (GMT+09:00),0,light,270,Fri Apr 24 2020 00:20:00 GMT+0900 (GMT+09:00)
616,fitbit,Thu Apr 23 2020 02:39:30 GMT+0900 (GMT+09:00),0,deep,1860,Fri Apr 24 2020 00:20:00 GMT+0900 (GMT+09:00)
617,fitbit,Thu Apr 23 2020 03:10:30 GMT+0900 (GMT+09:00),0,light,360,Fri Apr 24 2020 00:20:00 GMT+0900 (GMT+09:00)
618,fitbit,Thu Apr 23 2020 03:16:30 GMT+0900 (GMT+09:00),0,rem,2160,Fri Apr 24 2020 00:20:00 GMT+0900 (GMT+09:00)
619,fitbit,Thu Apr 23 2020 03:52:30 GMT+0900 (GMT+09:00),0,light,3210,Fri Apr 24 2020 00:20:00 GMT+0900 (GMT+09:00)
620,fitbit,Thu Apr 23 2020 04:46:00 GMT+0900 (GMT+09:00),0,rem,1380,Fri Apr 24 2020 00:20:00 GMT+0900 (GMT+09:00)
621,fitbit,Thu Apr 23 2020 05:09:00 GMT+0900 (GMT+09:00),0,light,1350,Fri Apr 24 2020 00:20:00 GMT+0900 (GMT+09:00)
622,fitbit,Thu Apr 23 2020 05:31:30 GMT+0900 (GMT+09:00),0,deep,2640,Fri Apr 24 2020 00:20:00 GMT+0900 (GMT+09:00)
623,fitbit,Thu Apr 23 2020 06:15:30 GMT+0900 (GMT+09:00),0,light,630,Fri Apr 24 2020 00:20:00 GMT+0900 (GMT+09:00)
624,fitbit,Thu Apr 23 2020 06:26:00 GMT+0900 (GMT+09:00),0,rem,2100,Fri Apr 24 2020 00:20:00 GMT+0900 (GMT+09:00)
625,fitbit,Thu Apr 23 2020 07:01:00 GMT+0900 (GMT+09:00),0,light,840,Fri Apr 24 2020 00:20:00 GMT+0900 (GMT+09:00)
626,fitbit,Thu Apr 23 2020 07:15:00 GMT+0900 (GMT+09:00),0,rem,270,Fri Apr 24 2020 00:20:00 GMT+0900 (GMT+09:00)
627,fitbit,Thu Apr 23 2020 07:19:30 GMT+0900 (GMT+09:00),0,light,2580,Fri Apr 24 2020 00:20:00 GMT+0900 (GMT+09:00)
628,fitbit,Thu Apr 23 2020 08:02:30 GMT+0900 (GMT+09:00),0,wake,570,Fri Apr 24 2020 00:20:00 GMT+0900 (GMT+09:00)
629,fitbit,Thu Apr 23 2020 08:12:00 GMT+0900 (GMT+09:00),0,light,1140,Fri Apr 24 2020 00:20:00 GMT+0900 (GMT+09:00)
630,fitbit,Fri Apr 24 2020 01:01:30 GMT+0900 (GMT+09:00),0,wake,30,Sat Apr 25 2020 00:20:00 GMT+0900 (GMT+09:00)
631,fitbit,Fri Apr 24 2020 01:02:00 GMT+0900 (GMT+09:00),0,light,300,Sat Apr 25 2020 00:20:00 GMT+0900 (GMT+09:00)
632,fitbit,Fri Apr 24 2020 01:07:00 GMT+0900 (GMT+09:00),0,wake,270,Sat Apr 25 2020 00:20:00 GMT+0900 (GMT+09:00)
633,fitbit,Fri Apr 24 2020 01:11:30 GMT+0900 (GMT+09:00),0,light,660,Sat Apr 25 2020 00:20:00 GMT+0900 (GMT+09:00)
634,fitbit,Fri Apr 24 2020 01:22:30 GMT+0900 (GMT+09:00),0,deep,2040,Sat Apr 25 2020 00:20:00 GMT+0900 (GMT+09:00)
635,fitbit,Fri Apr 24 2020 01:56:30 GMT+0900 (GMT+09:00),0,light,1350,Sat Apr 25 2020 00:20:00 GMT+0900 (GMT+09:00)
636,fitbit,Fri Apr 24 2020 02:19:00 GMT+0900 (GMT+09:00),0,deep,3180,Sat Apr 25 2020 00:20:00 GMT+0900 (GMT+09:00)
637,fitbit,Fri Apr 24 2020 03:12:00 GMT+0900 (GMT+09:00),0,light,570,Sat Apr 25 2020 00:20:00 GMT+0900 (GMT+09:00)
638,fitbit,Fri Apr 24 2020 03:21:30 GMT+0900 (GMT+09:00),0,rem,1380,Sat Apr 25 2020 00:20:00 GMT+0900 (GMT+09:00)
639,fitbit,Fri Apr 24 2020 03:44:30 GMT+0900 (GMT+09:00),0,light,1230,Sat Apr 25 2020 00:20:00 GMT+0900 (GMT+09:00)
640,fitbit,Fri Apr 24 2020 04:05:00 GMT+0900 (GMT+09:00),0,deep,420,Sat Apr 25 2020 00:20:00 GMT+0900 (GMT+09:00)
641,fitbit,Fri Apr 24 2020 04:12:00 GMT+0900 (GMT+09:00),0,light,1110,Sat Apr 25 2020 00:20:00 GMT+0900 (GMT+09:00)
642,fitbit,Fri Apr 24 2020 04:30:30 GMT+0900 (GMT+09:00),0,rem,1110,Sat Apr 25 2020 00:20:00 GMT+0900 (GMT+09:00)
643,fitbit,Fri Apr 24 2020 04:49:00 GMT+0900 (GMT+09:00),0,light,210,Sat Apr 25 2020 00:20:00 GMT+0900 (GMT+09:00)
644,fitbit,Fri Apr 24 2020 04:52:30 GMT+0900 (GMT+09:00),0,rem,1530,Sat Apr 25 2020 00:20:00 GMT+0900 (GMT+09:00)
645,fitbit,Fri Apr 24 2020 05:18:00 GMT+0900 (GMT+09:00),0,light,1050,Sat Apr 25 2020 00:20:00 GMT+0900 (GMT+09:00)
646,fitbit,Fri Apr 24 2020 05:35:30 GMT+0900 (GMT+09:00),0,rem,330,Sat Apr 25 2020 00:20:00 GMT+0900 (GMT+09:00)
647,fitbit,Fri Apr 24 2020 05:41:00 GMT+0900 (GMT+09:00),0,light,690,Sat Apr 25 2020 00:20:00 GMT+0900 (GMT+09:00)
648,fitbit,Fri Apr 24 2020 05:52:30 GMT+0900 (GMT+09:00),0,wake,210,Sat Apr 25 2020 00:20:00 GMT+0900 (GMT+09:00)
649,fitbit,Fri Apr 24 2020 05:56:00 GMT+0900 (GMT+09:00),0,light,360,Sat Apr 25 2020 00:20:00 GMT+0900 (GMT+09:00)
650,fitbit,Fri Apr 24 2020 06:02:00 GMT+0900 (GMT+09:00),0,rem,2340,Sat Apr 25 2020 00:20:00 GMT+0900 (GMT+09:00)
651,fitbit,Fri Apr 24 2020 06:41:00 GMT+0900 (GMT+09:00),0,light,360,Sat Apr 25 2020 00:20:00 GMT+0900 (GMT+09:00)
652,fitbit,Fri Apr 24 2020 06:47:00 GMT+0900 (GMT+09:00),0,rem,300,Sat Apr 25 2020 00:20:00 GMT+0900 (GMT+09:00)
653,fitbit,Fri Apr 24 2020 06:52:00 GMT+0900 (GMT+09:00),0,light,180,Sat Apr 25 2020 00:20:00 GMT+0900 (GMT+09:00)
654,fitbit,Fri Apr 24 2020 06:55:00 GMT+0900 (GMT+09:00),0,wake,600,Sat Apr 25 2020 00:20:00 GMT+0900 (GMT+09:00)
655,fitbit,Fri Apr 24 2020 07:05:00 GMT+0900 (GMT+09:00),0,light,2070,Sat Apr 25 2020 00:20:00 GMT+0900 (GMT+09:00)
656,fitbit,Fri Apr 24 2020 07:39:30 GMT+0900 (GMT+09:00),0,wake,450,Sat Apr 25 2020 00:20:00 GMT+0900 (GMT+09:00)
657,fitbit,Fri Apr 24 2020 07:47:00 GMT+0900 (GMT+09:00),0,light,480,Sat Apr 25 2020 00:20:00 GMT+0900 (GMT+09:00)
658,fitbit,Fri Apr 24 2020 07:55:00 GMT+0900 (GMT+09:00),0,wake,900,Sat Apr 25 2020 00:20:00 GMT+0900 (GMT+09:00)
659,fitbit,Sat Apr 25 2020 00:07:30 GMT+0900 (GMT+09:00),0,wake,30,Sun Apr 26 2020 00:20:00 GMT+0900 (GMT+09:00)
660,fitbit,Sat Apr 25 2020 00:08:00 GMT+0900 (GMT+09:00),0,light,600,Sun Apr 26 2020 00:20:00 GMT+0900 (GMT+09:00)
661,fitbit,Sat Apr 25 2020 00:18:00 GMT+0900 (GMT+09:00),0,wake,240,Sun Apr 26 2020 00:20:00 GMT+0900 (GMT+09:00)
662,fitbit,Sat Apr 25 2020 00:22:00 GMT+0900 (GMT+09:00),0,light,240,Sun Apr 26 2020 00:20:00 GMT+0900 (GMT+09:00)
663,fitbit,Sat Apr 25 2020 00:26:00 GMT+0900 (GMT+09:00),0,deep,2910,Sun Apr 26 2020 00:20:00 GMT+0900 (GMT+09:00)
664,fitbit,Sat Apr 25 2020 01:14:30 GMT+0900 (GMT+09:00),0,light,1410,Sun Apr 26 2020 00:20:00 GMT+0900 (GMT+09:00)
665,fitbit,Sat Apr 25 2020 01:38:00 GMT+0900 (GMT+09:00),0,deep,900,Sun Apr 26 2020 00:20:00 GMT+0900 (GMT+09:00)
666,fitbit,Sat Apr 25 2020 01:53:00 GMT+0900 (GMT+09:00),0,light,330,Sun Apr 26 2020 00:20:00 GMT+0900 (GMT+09:00)
667,fitbit,Sat Apr 25 2020 01:58:30 GMT+0900 (GMT+09:00),0,deep,660,Sun Apr 26 2020 00:20:00 GMT+0900 (GMT+09:00)
668,fitbit,Sat Apr 25 2020 02:09:30 GMT+0900 (GMT+09:00),0,light,2850,Sun Apr 26 2020 00:20:00 GMT+0900 (GMT+09:00)
669,fitbit,Sat Apr 25 2020 02:57:00 GMT+0900 (GMT+09:00),0,rem,270,Sun Apr 26 2020 00:20:00 GMT+0900 (GMT+09:00)
670,fitbit,Sat Apr 25 2020 03:01:30 GMT+0900 (GMT+09:00),0,light,1860,Sun Apr 26 2020 00:20:00 GMT+0900 (GMT+09:00)
671,fitbit,Sat Apr 25 2020 03:32:30 GMT+0900 (GMT+09:00),0,rem,630,Sun Apr 26 2020 00:20:00 GMT+0900 (GMT+09:00)
672,fitbit,Sat Apr 25 2020 03:43:00 GMT+0900 (GMT+09:00),0,light,30,Sun Apr 26 2020 00:20:00 GMT+0900 (GMT+09:00)
673,fitbit,Sat Apr 25 2020 03:43:30 GMT+0900 (GMT+09:00),0,deep,990,Sun Apr 26 2020 00:20:00 GMT+0900 (GMT+09:00)
674,fitbit,Sat Apr 25 2020 04:00:00 GMT+0900 (GMT+09:00),0,light,540,Sun Apr 26 2020 00:20:00 GMT+0900 (GMT+09:00)
675,fitbit,Sat Apr 25 2020 04:09:00 GMT+0900 (GMT+09:00),0,rem,2430,Sun Apr 26 2020 00:20:00 GMT+0900 (GMT+09:00)
676,fitbit,Sat Apr 25 2020 04:49:30 GMT+0900 (GMT+09:00),0,light,3450,Sun Apr 26 2020 00:20:00 GMT+0900 (GMT+09:00)
677,fitbit,Sat Apr 25 2020 05:47:00 GMT+0900 (GMT+09:00),0,rem,1920,Sun Apr 26 2020 00:20:00 GMT+0900 (GMT+09:00)
678,fitbit,Sat Apr 25 2020 06:19:00 GMT+0900 (GMT+09:00),0,wake,660,Sun Apr 26 2020 00:20:00 GMT+0900 (GMT+09:00)
679,fitbit,Sat Apr 25 2020 06:30:00 GMT+0900 (GMT+09:00),0,light,3180,Sun Apr 26 2020 00:20:00 GMT+0900 (GMT+09:00)
680,fitbit,Sat Apr 25 2020 07:23:00 GMT+0900 (GMT+09:00),0,rem,390,Sun Apr 26 2020 00:20:00 GMT+0900 (GMT+09:00)
681,fitbit,Sat Apr 25 2020 07:29:30 GMT+0900 (GMT+09:00),0,wake,300,Sun Apr 26 2020 00:20:00 GMT+0900 (GMT+09:00)
682,fitbit,Sat Apr 25 2020 07:34:30 GMT+0900 (GMT+09:00),0,light,1500,Sun Apr 26 2020 00:20:00 GMT+0900 (GMT+09:00)
683,fitbit,Sat Apr 25 2020 07:59:30 GMT+0900 (GMT+09:00),0,wake,600,Sun Apr 26 2020 00:20:00 GMT+0900 (GMT+09:00)
684,fitbit,Sun Apr 26 2020 01:02:00 GMT+0900 (GMT+09:00),0,wake,570,Mon Apr 27 2020 00:20:00 GMT+0900 (GMT+09:00)
685,fitbit,Sun Apr 26 2020 01:11:30 GMT+0900 (GMT+09:00),0,light,360,Mon Apr 27 2020 00:20:00 GMT+0900 (GMT+09:00)
686,fitbit,Sun Apr 26 2020 01:17:30 GMT+0900 (GMT+09:00),0,wake,1050,Mon Apr 27 2020 00:20:00 GMT+0900 (GMT+09:00)
687,fitbit,Sun Apr 26 2020 01:35:00 GMT+0900 (GMT+09:00),0,light,3180,Mon Apr 27 2020 00:20:00 GMT+0900 (GMT+09:00)
688,fitbit,Sun Apr 26 2020 02:28:00 GMT+0900 (GMT+09:00),0,rem,870,Mon Apr 27 2020 00:20:00 GMT+0900 (GMT+09:00)
689,fitbit,Sun Apr 26 2020 02:42:30 GMT+0900 (GMT+09:00),0,light,450,Mon Apr 27 2020 00:20:00 GMT+0900 (GMT+09:00)
690,fitbit,Sun Apr 26 2020 02:50:00 GMT+0900 (GMT+09:00),0,rem,2760,Mon Apr 27 2020 00:20:00 GMT+0900 (GMT+09:00)
691,fitbit,Sun Apr 26 2020 03:36:00 GMT+0900 (GMT+09:00),0,light,1500,Mon Apr 27 2020 00:20:00 GMT+0900 (GMT+09:00)
692,fitbit,Sun Apr 26 2020 04:01:00 GMT+0900 (GMT+09:00),0,deep,1950,Mon Apr 27 2020 00:20:00 GMT+0900 (GMT+09:00)
693,fitbit,Sun Apr 26 2020 04:33:30 GMT+0900 (GMT+09:00),0,light,780,Mon Apr 27 2020 00:20:00 GMT+0900 (GMT+09:00)
694,fitbit,Sun Apr 26 2020 04:46:30 GMT+0900 (GMT+09:00),0,rem,330,Mon Apr 27 2020 00:20:00 GMT+0900 (GMT+09:00)
695,fitbit,Sun Apr 26 2020 04:52:00 GMT+0900 (GMT+09:00),0,light,3060,Mon Apr 27 2020 00:20:00 GMT+0900 (GMT+09:00)
696,fitbit,Sun Apr 26 2020 05:43:00 GMT+0900 (GMT+09:00),0,wake,390,Mon Apr 27 2020 00:20:00 GMT+0900 (GMT+09:00)
697,fitbit,Sun Apr 26 2020 05:49:30 GMT+0900 (GMT+09:00),0,light,2430,Mon Apr 27 2020 00:20:00 GMT+0900 (GMT+09:00)
698,fitbit,Sun Apr 26 2020 06:30:00 GMT+0900 (GMT+09:00),0,deep,600,Mon Apr 27 2020 00:20:00 GMT+0900 (GMT+09:00)
699,fitbit,Sun Apr 26 2020 06:40:00 GMT+0900 (GMT+09:00),0,light,3600,Mon Apr 27 2020 00:20:00 GMT+0900 (GMT+09:00)
700,fitbit,Sun Apr 26 2020 07:40:00 GMT+0900 (GMT+09:00),0,wake,300,Mon Apr 27 2020 00:20:00 GMT+0900 (GMT+09:00)
701,fitbit,Mon Apr 27 2020 00:17:00 GMT+0900 (GMT+09:00),0,wake,480,Tue Apr 28 2020 00:20:00 GMT+0900 (GMT+09:00)
702,fitbit,Mon Apr 27 2020 00:25:00 GMT+0900 (GMT+09:00),0,light,1260,Tue Apr 28 2020 00:20:00 GMT+0900 (GMT+09:00)
703,fitbit,Mon Apr 27 2020 00:46:00 GMT+0900 (GMT+09:00),0,deep,3210,Tue Apr 28 2020 00:20:00 GMT+0900 (GMT+09:00)
704,fitbit,Mon Apr 27 2020 01:39:30 GMT+0900 (GMT+09:00),0,light,660,Tue Apr 28 2020 00:20:00 GMT+0900 (GMT+09:00)
705,fitbit,Mon Apr 27 2020 01:50:30 GMT+0900 (GMT+09:00),0,wake,690,Tue Apr 28 2020 00:20:00 GMT+0900 (GMT+09:00)
706,fitbit,Mon Apr 27 2020 02:02:00 GMT+0900 (GMT+09:00),0,light,1440,Tue Apr 28 2020 00:20:00 GMT+0900 (GMT+09:00)
707,fitbit,Mon Apr 27 2020 02:26:00 GMT+0900 (GMT+09:00),0,rem,300,Tue Apr 28 2020 00:20:00 GMT+0900 (GMT+09:00)
708,fitbit,Mon Apr 27 2020 02:31:00 GMT+0900 (GMT+09:00),0,light,840,Tue Apr 28 2020 00:20:00 GMT+0900 (GMT+09:00)
709,fitbit,Mon Apr 27 2020 02:45:00 GMT+0900 (GMT+09:00),0,rem,270,Tue Apr 28 2020 00:20:00 GMT+0900 (GMT+09:00)
710,fitbit,Mon Apr 27 2020 02:49:30 GMT+0900 (GMT+09:00),0,light,780,Tue Apr 28 2020 00:20:00 GMT+0900 (GMT+09:00)
711,fitbit,Mon Apr 27 2020 03:02:30 GMT+0900 (GMT+09:00),0,rem,1410,Tue Apr 28 2020 00:20:00 GMT+0900 (GMT+09:00)
712,fitbit,Mon Apr 27 2020 03:26:00 GMT+0900 (GMT+09:00),0,light,1080,Tue Apr 28 2020 00:20:00 GMT+0900 (GMT+09:00)
713,fitbit,Mon Apr 27 2020 03:44:00 GMT+0900 (GMT+09:00),0,deep,1620,Tue Apr 28 2020 00:20:00 GMT+0900 (GMT+09:00)
714,fitbit,Mon Apr 27 2020 04:11:00 GMT+0900 (GMT+09:00),0,light,750,Tue Apr 28 2020 00:20:00 GMT+0900 (GMT+09:00)
715,fitbit,Mon Apr 27 2020 04:23:30 GMT+0900 (GMT+09:00),0,rem,390,Tue Apr 28 2020 00:20:00 GMT+0900 (GMT+09:00)
716,fitbit,Mon Apr 27 2020 04:30:00 GMT+0900 (GMT+09:00),0,wake,210,Tue Apr 28 2020 00:20:00 GMT+0900 (GMT+09:00)
717,fitbit,Mon Apr 27 2020 04:33:30 GMT+0900 (GMT+09:00),0,light,3690,Tue Apr 28 2020 00:20:00 GMT+0900 (GMT+09:00)
718,fitbit,Mon Apr 27 2020 05:35:00 GMT+0900 (GMT+09:00),0,rem,1560,Tue Apr 28 2020 00:20:00 GMT+0900 (GMT+09:00)
719,fitbit,Mon Apr 27 2020 06:01:00 GMT+0900 (GMT+09:00),0,light,2790,Tue Apr 28 2020 00:20:00 GMT+0900 (GMT+09:00)
720,fitbit,Mon Apr 27 2020 06:47:30 GMT+0900 (GMT+09:00),0,wake,240,Tue Apr 28 2020 00:20:00 GMT+0900 (GMT+09:00)
721,fitbit,Mon Apr 27 2020 06:51:30 GMT+0900 (GMT+09:00),0,light,240,Tue Apr 28 2020 00:20:00 GMT+0900 (GMT+09:00)
722,fitbit,Mon Apr 27 2020 06:55:30 GMT+0900 (GMT+09:00),0,rem,630,Tue Apr 28 2020 00:20:00 GMT+0900 (GMT+09:00)
723,fitbit,Mon Apr 27 2020 07:06:00 GMT+0900 (GMT+09:00),0,light,540,Tue Apr 28 2020 00:20:00 GMT+0900 (GMT+09:00)
724,fitbit,Mon Apr 27 2020 07:15:00 GMT+0900 (GMT+09:00),0,rem,1680,Tue Apr 28 2020 00:20:00 GMT+0900 (GMT+09:00)
725,fitbit,Mon Apr 27 2020 07:43:00 GMT+0900 (GMT+09:00),0,light,1500,Tue Apr 28 2020 00:20:00 GMT+0900 (GMT+09:00)
726,fitbit,Mon Apr 27 2020 08:08:00 GMT+0900 (GMT+09:00),0,wake,720,Tue Apr 28 2020 00:20:00 GMT+0900 (GMT+09:00)
727,fitbit,Mon Apr 27 2020 08:20:00 GMT+0900 (GMT+09:00),0,light,1290,Tue Apr 28 2020 00:20:00 GMT+0900 (GMT+09:00)
728,fitbit,Mon Apr 27 2020 08:41:30 GMT+0900 (GMT+09:00),0,wake,270,Tue Apr 28 2020 00:20:00 GMT+0900 (GMT+09:00)
729,fitbit,Tue Apr 28 2020 00:08:00 GMT+0900 (GMT+09:00),0,wake,540,Wed Apr 29 2020 00:20:00 GMT+0900 (GMT+09:00)
730,fitbit,Tue Apr 28 2020 00:17:00 GMT+0900 (GMT+09:00),0,light,120,Wed Apr 29 2020 00:20:00 GMT+0900 (GMT+09:00)
731,fitbit,Tue Apr 28 2020 00:19:00 GMT+0900 (GMT+09:00),0,deep,450,Wed Apr 29 2020 00:20:00 GMT+0900 (GMT+09:00)
732,fitbit,Tue Apr 28 2020 00:26:30 GMT+0900 (GMT+09:00),0,light,360,Wed Apr 29 2020 00:20:00 GMT+0900 (GMT+09:00)
733,fitbit,Tue Apr 28 2020 00:32:30 GMT+0900 (GMT+09:00),0,deep,1320,Wed Apr 29 2020 00:20:00 GMT+0900 (GMT+09:00)
734,fitbit,Tue Apr 28 2020 00:54:30 GMT+0900 (GMT+09:00),0,light,2100,Wed Apr 29 2020 00:20:00 GMT+0900 (GMT+09:00)
735,fitbit,Tue Apr 28 2020 01:29:30 GMT+0900 (GMT+09:00),0,wake,300,Wed Apr 29 2020 00:20:00 GMT+0900 (GMT+09:00)
736,fitbit,Tue Apr 28 2020 01:34:30 GMT+0900 (GMT+09:00),0,light,60,Wed Apr 29 2020 00:20:00 GMT+0900 (GMT+09:00)
737,fitbit,Tue Apr 28 2020 01:35:30 GMT+0900 (GMT+09:00),0,deep,270,Wed Apr 29 2020 00:20:00 GMT+0900 (GMT+09:00)
738,fitbit,Tue Apr 28 2020 01:40:00 GMT+0900 (GMT+09:00),0,wake,360,Wed Apr 29 2020 00:20:00 GMT+0900 (GMT+09:00)
739,fitbit,Tue Apr 28 2020 01:46:00 GMT+0900 (GMT+09:00),0,light,1260,Wed Apr 29 2020 00:20:00 GMT+0900 (GMT+09:00)
740,fitbit,Tue Apr 28 2020 02:07:00 GMT+0900 (GMT+09:00),0,deep,1830,Wed Apr 29 2020 00:20:00 GMT+0900 (GMT+09:00)
741,fitbit,Tue Apr 28 2020 02:37:30 GMT+0900 (GMT+09:00),0,light,1260,Wed Apr 29 2020 00:20:00 GMT+0900 (GMT+09:00)
742,fitbit,Tue Apr 28 2020 02:58:30 GMT+0900 (GMT+09:00),0,rem,1290,Wed Apr 29 2020 00:20:00 GMT+0900 (GMT+09:00)
743,fitbit,Tue Apr 28 2020 03:20:00 GMT+0900 (GMT+09:00),0,light,1710,Wed Apr 29 2020 00:20:00 GMT+0900 (GMT+09:00)
744,fitbit,Tue Apr 28 2020 03:48:30 GMT+0900 (GMT+09:00),0,deep,270,Wed Apr 29 2020 00:20:00 GMT+0900 (GMT+09:00)
745,fitbit,Tue Apr 28 2020 03:53:00 GMT+0900 (GMT+09:00),0,light,570,Wed Apr 29 2020 00:20:00 GMT+0900 (GMT+09:00)
746,fitbit,Tue Apr 28 2020 04:02:30 GMT+0900 (GMT+09:00),0,deep,930,Wed Apr 29 2020 00:20:00 GMT+0900 (GMT+09:00)
747,fitbit,Tue Apr 28 2020 04:18:00 GMT+0900 (GMT+09:00),0,light,300,Wed Apr 29 2020 00:20:00 GMT+0900 (GMT+09:00)
748,fitbit,Tue Apr 28 2020 04:23:00 GMT+0900 (GMT+09:00),0,rem,330,Wed Apr 29 2020 00:20:00 GMT+0900 (GMT+09:00)
749,fitbit,Tue Apr 28 2020 04:28:30 GMT+0900 (GMT+09:00),0,light,6750,Wed Apr 29 2020 00:20:00 GMT+0900 (GMT+09:00)
750,fitbit,Tue Apr 28 2020 06:21:00 GMT+0900 (GMT+09:00),0,rem,1230,Wed Apr 29 2020 00:20:00 GMT+0900 (GMT+09:00)
751,fitbit,Tue Apr 28 2020 06:41:30 GMT+0900 (GMT+09:00),0,light,480,Wed Apr 29 2020 00:20:00 GMT+0900 (GMT+09:00)
752,fitbit,Tue Apr 28 2020 06:49:30 GMT+0900 (GMT+09:00),0,rem,270,Wed Apr 29 2020 00:20:00 GMT+0900 (GMT+09:00)
753,fitbit,Tue Apr 28 2020 06:54:00 GMT+0900 (GMT+09:00),0,light,720,Wed Apr 29 2020 00:20:00 GMT+0900 (GMT+09:00)
754,fitbit,Tue Apr 28 2020 07:06:00 GMT+0900 (GMT+09:00),0,wake,420,Wed Apr 29 2020 00:20:00 GMT+0900 (GMT+09:00)
755,fitbit,Tue Apr 28 2020 07:13:00 GMT+0900 (GMT+09:00),0,light,3900,Wed Apr 29 2020 00:20:00 GMT+0900 (GMT+09:00)
756,fitbit,Tue Apr 28 2020 08:18:00 GMT+0900 (GMT+09:00),0,wake,390,Wed Apr 29 2020 00:20:00 GMT+0900 (GMT+09:00)
757,fitbit,Wed Apr 29 2020 01:33:30 GMT+0900 (GMT+09:00),0,wake,1050,Thu Apr 30 2020 00:20:00 GMT+0900 (GMT+09:00)
758,fitbit,Wed Apr 29 2020 01:51:00 GMT+0900 (GMT+09:00),0,light,180,Thu Apr 30 2020 00:20:00 GMT+0900 (GMT+09:00)
759,fitbit,Wed Apr 29 2020 01:54:00 GMT+0900 (GMT+09:00),0,wake,630,Thu Apr 30 2020 00:20:00 GMT+0900 (GMT+09:00)
760,fitbit,Wed Apr 29 2020 02:04:30 GMT+0900 (GMT+09:00),0,light,900,Thu Apr 30 2020 00:20:00 GMT+0900 (GMT+09:00)
761,fitbit,Wed Apr 29 2020 02:19:30 GMT+0900 (GMT+09:00),0,deep,1170,Thu Apr 30 2020 00:20:00 GMT+0900 (GMT+09:00)
762,fitbit,Wed Apr 29 2020 02:39:00 GMT+0900 (GMT+09:00),0,light,720,Thu Apr 30 2020 00:20:00 GMT+0900 (GMT+09:00)
763,fitbit,Wed Apr 29 2020 02:51:00 GMT+0900 (GMT+09:00),0,wake,210,Thu Apr 30 2020 00:20:00 GMT+0900 (GMT+09:00)
764,fitbit,Wed Apr 29 2020 02:54:30 GMT+0900 (GMT+09:00),0,light,210,Thu Apr 30 2020 00:20:00 GMT+0900 (GMT+09:00)
765,fitbit,Wed Apr 29 2020 02:58:00 GMT+0900 (GMT+09:00),0,wake,300,Thu Apr 30 2020 00:20:00 GMT+0900 (GMT+09:00)
766,fitbit,Wed Apr 29 2020 03:03:00 GMT+0900 (GMT+09:00),0,light,840,Thu Apr 30 2020 00:20:00 GMT+0900 (GMT+09:00)
767,fitbit,Wed Apr 29 2020 03:17:00 GMT+0900 (GMT+09:00),0,deep,1440,Thu Apr 30 2020 00:20:00 GMT+0900 (GMT+09:00)
768,fitbit,Wed Apr 29 2020 03:41:00 GMT+0900 (GMT+09:00),0,light,750,Thu Apr 30 2020 00:20:00 GMT+0900 (GMT+09:00)
769,fitbit,Wed Apr 29 2020 03:53:30 GMT+0900 (GMT+09:00),0,rem,420,Thu Apr 30 2020 00:20:00 GMT+0900 (GMT+09:00)
770,fitbit,Wed Apr 29 2020 04:00:30 GMT+0900 (GMT+09:00),0,light,720,Thu Apr 30 2020 00:20:00 GMT+0900 (GMT+09:00)
771,fitbit,Wed Apr 29 2020 04:12:30 GMT+0900 (GMT+09:00),0,rem,360,Thu Apr 30 2020 00:20:00 GMT+0900 (GMT+09:00)
772,fitbit,Wed Apr 29 2020 04:18:30 GMT+0900 (GMT+09:00),0,light,1200,Thu Apr 30 2020 00:20:00 GMT+0900 (GMT+09:00)
773,fitbit,Wed Apr 29 2020 04:38:30 GMT+0900 (GMT+09:00),0,deep,1320,Thu Apr 30 2020 00:20:00 GMT+0900 (GMT+09:00)
774,fitbit,Wed Apr 29 2020 05:00:30 GMT+0900 (GMT+09:00),0,light,660,Thu Apr 30 2020 00:20:00 GMT+0900 (GMT+09:00)
775,fitbit,Wed Apr 29 2020 05:11:30 GMT+0900 (GMT+09:00),0,rem,390,Thu Apr 30 2020 00:20:00 GMT+0900 (GMT+09:00)
776,fitbit,Wed Apr 29 2020 05:18:00 GMT+0900 (GMT+09:00),0,light,1620,Thu Apr 30 2020 00:20:00 GMT+0900 (GMT+09:00)
777,fitbit,Wed Apr 29 2020 05:45:00 GMT+0900 (GMT+09:00),0,rem,1230,Thu Apr 30 2020 00:20:00 GMT+0900 (GMT+09:00)
778,fitbit,Wed Apr 29 2020 06:05:30 GMT+0900 (GMT+09:00),0,light,2460,Thu Apr 30 2020 00:20:00 GMT+0900 (GMT+09:00)
779,fitbit,Wed Apr 29 2020 06:46:30 GMT+0900 (GMT+09:00),0,rem,2880,Thu Apr 30 2020 00:20:00 GMT+0900 (GMT+09:00)
780,fitbit,Wed Apr 29 2020 07:34:30 GMT+0900 (GMT+09:00),0,light,1710,Thu Apr 30 2020 00:20:00 GMT+0900 (GMT+09:00)
781,fitbit,Wed Apr 29 2020 08:03:00 GMT+0900 (GMT+09:00),0,wake,300,Thu Apr 30 2020 00:20:00 GMT+0900 (GMT+09:00)
782,fitbit,Wed Apr 29 2020 08:08:00 GMT+0900 (GMT+09:00),0,light,630,Thu Apr 30 2020 00:20:00 GMT+0900 (GMT+09:00)
783,fitbit,Wed Apr 29 2020 08:18:30 GMT+0900 (GMT+09:00),0,wake,210,Thu Apr 30 2020 00:20:00 GMT+0900 (GMT+09:00)
784,fitbit,Wed Apr 29 2020 08:22:00 GMT+0900 (GMT+09:00),0,light,210,Thu Apr 30 2020 00:20:00 GMT+0900 (GMT+09:00)
785,fitbit,Thu Apr 30 2020 00:33:00 GMT+0900 (GMT+09:00),0,wake,390,Fri May 01 2020 00:20:00 GMT+0900 (GMT+09:00)
786,fitbit,Thu Apr 30 2020 00:39:30 GMT+0900 (GMT+09:00),0,deep,3150,Fri May 01 2020 00:20:00 GMT+0900 (GMT+09:00)
787,fitbit,Thu Apr 30 2020 01:32:00 GMT+0900 (GMT+09:00),0,light,450,Fri May 01 2020 00:20:00 GMT+0900 (GMT+09:00)
788,fitbit,Thu Apr 30 2020 01:39:30 GMT+0900 (GMT+09:00),0,wake,240,Fri May 01 2020 00:20:00 GMT+0900 (GMT+09:00)
789,fitbit,Thu Apr 30 2020 01:43:30 GMT+0900 (GMT+09:00),0,light,2670,Fri May 01 2020 00:20:00 GMT+0900 (GMT+09:00)
790,fitbit,Thu Apr 30 2020 02:28:00 GMT+0900 (GMT+09:00),0,deep,750,Fri May 01 2020 00:20:00 GMT+0900 (GMT+09:00)
791,fitbit,Thu Apr 30 2020 02:40:30 GMT+0900 (GMT+09:00),0,light,5910,Fri May 01 2020 00:20:00 GMT+0900 (GMT+09:00)
792,fitbit,Thu Apr 30 2020 04:19:00 GMT+0900 (GMT+09:00),0,rem,1260,Fri May 01 2020 00:20:00 GMT+0900 (GMT+09:00)
793,fitbit,Thu Apr 30 2020 04:40:00 GMT+0900 (GMT+09:00),0,light,3870,Fri May 01 2020 00:20:00 GMT+0900 (GMT+09:00)
794,fitbit,Thu Apr 30 2020 05:44:30 GMT+0900 (GMT+09:00),0,rem,990,Fri May 01 2020 00:20:00 GMT+0900 (GMT+09:00)
795,fitbit,Thu Apr 30 2020 06:01:00 GMT+0900 (GMT+09:00),0,light,3300,Fri May 01 2020 00:20:00 GMT+0900 (GMT+09:00)
796,fitbit,Thu Apr 30 2020 06:56:00 GMT+0900 (GMT+09:00),0,deep,1080,Fri May 01 2020 00:20:00 GMT+0900 (GMT+09:00)
797,fitbit,Thu Apr 30 2020 07:14:00 GMT+0900 (GMT+09:00),0,light,780,Fri May 01 2020 00:20:00 GMT+0900 (GMT+09:00)
798,fitbit,Thu Apr 30 2020 07:27:00 GMT+0900 (GMT+09:00),0,wake,360,Fri May 01 2020 00:20:00 GMT+0900 (GMT+09:00)
799,fitbit,Thu Apr 30 2020 07:33:00 GMT+0900 (GMT+09:00),0,light,270,Fri May 01 2020 00:20:00 GMT+0900 (GMT+09:00)
800,fitbit,Thu Apr 30 2020 07:37:30 GMT+0900 (GMT+09:00),0,wake,540,Fri May 01 2020 00:20:00 GMT+0900 (GMT+09:00)
801,fitbit,Thu Apr 30 2020 07:46:30 GMT+0900 (GMT+09:00),0,light,2730,Fri May 01 2020 00:20:00 GMT+0900 (GMT+09:00)
802,fitbit,Thu Apr 30 2020 08:32:00 GMT+0900 (GMT+09:00),0,wake,270,Fri May 01 2020 00:20:00 GMT+0900 (GMT+09:00)
803,fitbit,Thu May 07 2020 00:47:00 GMT+0900 (GMT+09:00),0,wake,450,Fri May 08 2020 00:20:00 GMT+0900 (GMT+09:00)
804,fitbit,Thu May 07 2020 00:54:30 GMT+0900 (GMT+09:00),0,light,450,Fri May 08 2020 00:20:00 GMT+0900 (GMT+09:00)
805,fitbit,Thu May 07 2020 01:02:00 GMT+0900 (GMT+09:00),0,wake,240,Fri May 08 2020 00:20:00 GMT+0900 (GMT+09:00)
806,fitbit,Thu May 07 2020 01:06:00 GMT+0900 (GMT+09:00),0,light,1950,Fri May 08 2020 00:20:00 GMT+0900 (GMT+09:00)
807,fitbit,Thu May 07 2020 01:38:30 GMT+0900 (GMT+09:00),0,deep,270,Fri May 08 2020 00:20:00 GMT+0900 (GMT+09:00)
808,fitbit,Thu May 07 2020 01:43:00 GMT+0900 (GMT+09:00),0,light,1410,Fri May 08 2020 00:20:00 GMT+0900 (GMT+09:00)
809,fitbit,Thu May 07 2020 02:06:30 GMT+0900 (GMT+09:00),0,deep,2970,Fri May 08 2020 00:20:00 GMT+0900 (GMT+09:00)
810,fitbit,Thu May 07 2020 02:56:00 GMT+0900 (GMT+09:00),0,wake,270,Fri May 08 2020 00:20:00 GMT+0900 (GMT+09:00)
811,fitbit,Thu May 07 2020 03:00:30 GMT+0900 (GMT+09:00),0,light,7800,Fri May 08 2020 00:20:00 GMT+0900 (GMT+09:00)
812,fitbit,Thu May 07 2020 05:10:30 GMT+0900 (GMT+09:00),0,rem,330,Fri May 08 2020 00:20:00 GMT+0900 (GMT+09:00)
813,fitbit,Thu May 07 2020 05:16:00 GMT+0900 (GMT+09:00),0,light,3780,Fri May 08 2020 00:20:00 GMT+0900 (GMT+09:00)
814,fitbit,Thu May 07 2020 06:19:00 GMT+0900 (GMT+09:00),0,rem,270,Fri May 08 2020 00:20:00 GMT+0900 (GMT+09:00)
815,fitbit,Thu May 07 2020 06:23:30 GMT+0900 (GMT+09:00),0,light,360,Fri May 08 2020 00:20:00 GMT+0900 (GMT+09:00)
816,fitbit,Thu May 07 2020 06:29:30 GMT+0900 (GMT+09:00),0,rem,660,Fri May 08 2020 00:20:00 GMT+0900 (GMT+09:00)
817,fitbit,Thu May 07 2020 06:40:30 GMT+0900 (GMT+09:00),0,light,1890,Fri May 08 2020 00:20:00 GMT+0900 (GMT+09:00)
818,fitbit,Thu May 07 2020 07:12:00 GMT+0900 (GMT+09:00),0,deep,300,Fri May 08 2020 00:20:00 GMT+0900 (GMT+09:00)
819,fitbit,Thu May 07 2020 07:17:00 GMT+0900 (GMT+09:00),0,light,1200,Fri May 08 2020 00:20:00 GMT+0900 (GMT+09:00)
820,fitbit,Thu May 07 2020 07:37:00 GMT+0900 (GMT+09:00),0,rem,390,Fri May 08 2020 00:20:00 GMT+0900 (GMT+09:00)
821,fitbit,Thu May 07 2020 07:43:30 GMT+0900 (GMT+09:00),0,light,390,Fri May 08 2020 00:20:00 GMT+0900 (GMT+09:00)
822,fitbit,Thu May 07 2020 07:50:00 GMT+0900 (GMT+09:00),0,wake,1500,Fri May 08 2020 00:20:00 GMT+0900 (GMT+09:00)
823,fitbit,Thu May 07 2020 08:15:00 GMT+0900 (GMT+09:00),0,light,270,Fri May 08 2020 00:20:00 GMT+0900 (GMT+09:00)
824,fitbit,Fri May 08 2020 01:13:30 GMT+0900 (GMT+09:00),0,wake,750,Sat May 09 2020 00:20:00 GMT+0900 (GMT+09:00)
825,fitbit,Fri May 08 2020 01:26:00 GMT+0900 (GMT+09:00),0,light,1350,Sat May 09 2020 00:20:00 GMT+0900 (GMT+09:00)
826,fitbit,Fri May 08 2020 01:48:30 GMT+0900 (GMT+09:00),0,deep,2160,Sat May 09 2020 00:20:00 GMT+0900 (GMT+09:00)
827,fitbit,Fri May 08 2020 02:24:30 GMT+0900 (GMT+09:00),0,light,300,Sat May 09 2020 00:20:00 GMT+0900 (GMT+09:00)
828,fitbit,Fri May 08 2020 02:29:30 GMT+0900 (GMT+09:00),0,rem,270,Sat May 09 2020 00:20:00 GMT+0900 (GMT+09:00)
829,fitbit,Fri May 08 2020 02:34:00 GMT+0900 (GMT+09:00),0,light,2220,Sat May 09 2020 00:20:00 GMT+0900 (GMT+09:00)
830,fitbit,Fri May 08 2020 03:11:00 GMT+0900 (GMT+09:00),0,deep,1050,Sat May 09 2020 00:20:00 GMT+0900 (GMT+09:00)
831,fitbit,Fri May 08 2020 03:28:30 GMT+0900 (GMT+09:00),0,light,810,Sat May 09 2020 00:20:00 GMT+0900 (GMT+09:00)
832,fitbit,Fri May 08 2020 03:42:00 GMT+0900 (GMT+09:00),0,rem,1770,Sat May 09 2020 00:20:00 GMT+0900 (GMT+09:00)
833,fitbit,Fri May 08 2020 04:11:30 GMT+0900 (GMT+09:00),0,light,780,Sat May 09 2020 00:20:00 GMT+0900 (GMT+09:00)
834,fitbit,Fri May 08 2020 04:24:30 GMT+0900 (GMT+09:00),0,deep,780,Sat May 09 2020 00:20:00 GMT+0900 (GMT+09:00)
835,fitbit,Fri May 08 2020 04:37:30 GMT+0900 (GMT+09:00),0,light,2220,Sat May 09 2020 00:20:00 GMT+0900 (GMT+09:00)
836,fitbit,Fri May 08 2020 05:14:30 GMT+0900 (GMT+09:00),0,rem,1260,Sat May 09 2020 00:20:00 GMT+0900 (GMT+09:00)
837,fitbit,Fri May 08 2020 05:35:30 GMT+0900 (GMT+09:00),0,light,1020,Sat May 09 2020 00:20:00 GMT+0900 (GMT+09:00)
838,fitbit,Fri May 08 2020 05:52:30 GMT+0900 (GMT+09:00),0,wake,210,Sat May 09 2020 00:20:00 GMT+0900 (GMT+09:00)
839,fitbit,Fri May 08 2020 05:56:00 GMT+0900 (GMT+09:00),0,light,2490,Sat May 09 2020 00:20:00 GMT+0900 (GMT+09:00)
840,fitbit,Fri May 08 2020 06:37:30 GMT+0900 (GMT+09:00),0,rem,1710,Sat May 09 2020 00:20:00 GMT+0900 (GMT+09:00)
841,fitbit,Fri May 08 2020 07:06:00 GMT+0900 (GMT+09:00),0,light,4140,Sat May 09 2020 00:20:00 GMT+0900 (GMT+09:00)
842,fitbit,Fri May 08 2020 08:15:00 GMT+0900 (GMT+09:00),0,wake,540,Sat May 09 2020 00:20:00 GMT+0900 (GMT+09:00)
843,fitbit,Fri May 08 2020 08:24:00 GMT+0900 (GMT+09:00),0,light,360,Sat May 09 2020 00:20:00 GMT+0900 (GMT+09:00)
844,fitbit,Fri May 08 2020 08:30:00 GMT+0900 (GMT+09:00),0,wake,210,Sat May 09 2020 00:20:00 GMT+0900 (GMT+09:00)
